hysteresis/mat1/area_again/4.csv

Record Length,2000,Points,-80.000005662E-3,80.000005662E-3,,Record Length,2000,Points,-80.000005662E-3,-16.3999996,
Sample Interval,79.999997979E-6,s,-79.920008779E-3,160.00001132E-3,,Sample Interval,79.999997979E-6,s,-79.920008779E-3,-16.0000000,
Trigger Point,1.0000001E3,Samples,-79.840004444E-3,240.00000954E-3,,Trigger Point,1.0000001E3,Samples,-79.840004444E-3,-15.6000004,
,,,-79.760007560E-3,320.00002265E-3,,,,,-79.760007560E-3,-15.1999998,
,,,-79.680003226E-3,400.00003576E-3,,,,,-79.680003226E-3,-15.1999998,
,,,-79.600006342E-3,480.000019073E-3,,,,,-79.600006342E-3,-14.8000002,
Source,CH1,,-79.520002007E-3,560.000061989E-3,,Source,CH2,,-79.520002007E-3,-14.4000006,
Vertical Units,V,,-79.440005124E-3,640.000045300E-3,,Vertical Units,V,,-79.440005124E-3,-14.0000000,
Vertical Scale,2.0000001,,-79.360008240E-3,800.000071526E-3,,Vertical Scale,10.0000001,,-79.360008240E-3,-13.6000004,
Vertical Offset,0,,-79.280003905E-3,800.000071526E-3,,Vertical Offset,0,,-79.280003905E-3,-13.1999998,
Horizontal Units,s,,-79.200007021E-3,880.000054836E-3,,Horizontal Units,s,,-79.200007021E-3,-12.8000002,
Horizontal Scale,15.9999996E-3,,-79.120002687E-3,960.000038147E-3,,Horizontal Scale,15.9999996E-3,,-79.120002687E-3,-12.4000006,
Pt Fmt,Y,,-79.040005803E-3,1.0400001,,Pt Fmt,Y,,-79.040005803E-3,-12.0000000,
Yzero,0.0,,-78.960008919E-3,1.1200001,,Yzero,0.0,,-78.960008919E-3,-11.6000004,
,,,-78.880004585E-3,1.2000000,,,,,-78.880004585E-3,-11.1999998,
,,,-78.800007701E-3,1.2800001,,,,,-78.800007701E-3,-10.8000002,
Note,TBS1052C - 12:33:21   14-Jan-24,,-78.720003366E-3,1.3600001,,Note,TBS1052C - 12:33:21   14-Jan-24,,-78.720003366E-3,-10.4000006,
,,,-78.640006483E-3,1.4400001,,,,,-78.640006483E-3,-10.0000000,
,,,-78.560002148E-3,1.5200001,,,,,-78.560002148E-3,-9.600000381,
,,,-78.480005264E-3,1.6000001,,,,,-78.480005264E-3,-8.800000191,
,,,-78.400008380E-3,1.6000001,,,,,-78.400008380E-3,-8.400000572,
,,,-78.320004046E-3,1.6800001,,,,,-78.320004046E-3,-8.000000000,
,,,-78.240007162E-3,1.7600001,,,,,-78.240007162E-3,-7.599999905,
,,,-78.160002828E-3,1.8400002,,,,,-78.160002828E-3,-7.20000029,
,,,-78.080005944E-3,1.9200001,,,,,-78.080005944E-3,-6.80000019,
,,,-78.000009060E-3,2.0000002,,,,,-78.000009060E-3,-6.40000010,
,,,-77.920004725E-3,2.0800002,,,,,-77.920004725E-3,-5.59999990,
,,,-77.840007842E-3,2.0800002,,,,,-77.840007842E-3,-5.20000029,
,,,-77.760003507E-3,2.1600001,,,,,-77.760003507E-3,-4.80000019,
,,,-77.680006623E-3,2.2400002,,,,,-77.680006623E-3,-4.40000010,
,,,-77.600002289E-3,2.2400002,,,,,-77.600002289E-3,-4.00000000,
,,,-77.520005405E-3,2.3200002,,,,,-77.520005405E-3,-3.20000005,
,,,-77.440008521E-3,2.3200002,,,,,-77.440008521E-3,-2.79999995,
,,,-77.360004187E-3,2.4000001,,,,,-77.360004187E-3,-2.4000001,
,,,-77.280007303E-3,2.4800003,,,,,-77.280007303E-3,-2.0000000,
,,,-77.200002968E-3,2.4800003,,,,,-77.200002968E-3,-1.6000000,
,,,-77.120006084E-3,2.5600002,,,,,-77.120006084E-3,-800.000011921E-3,
,,,-77.040009201E-3,2.5600002,,,,,-77.040009201E-3,0.0,
,,,-76.960004866E-3,2.6400001,,,,,-76.960004866E-3,400.00000596E-3,
,,,-76.880007982E-3,2.6400001,,,,,-76.880007982E-3,800.000011921E-3,
,,,-76.800003648E-3,2.72000027,,,,,-76.800003648E-3,1.2000000,
,,,-76.720006764E-3,2.72000027,,,,,-76.720006764E-3,1.6000000,
,,,-76.640002429E-3,2.80000019,,,,,-76.640002429E-3,2.4000001,
,,,-76.560005546E-3,2.80000019,,,,,-76.560005546E-3,2.79999995,
,,,-76.480008662E-3,2.80000019,,,,,-76.480008662E-3,3.60000014,
,,,-76.400004327E-3,2.88000011,,,,,-76.400004327E-3,4.00000000,
,,,-76.320007443E-3,2.88000011,,,,,-76.320007443E-3,4.40000010,
,,,-76.240003109E-3,2.88000011,,,,,-76.240003109E-3,4.80000019,
,,,-76.160006225E-3,2.96000028,,,,,-76.160006225E-3,5.59999990,
,,,-76.080009341E-3,2.96000028,,,,,-76.080009341E-3,6.00000000,
,,,-76.000005007E-3,2.96000028,,,,,-76.000005007E-3,6.80000019,
,,,-75.920008123E-3,2.96000028,,,,,-75.920008123E-3,7.20000029,
,,,-75.840003788E-3,3.04000020,,,,,-75.840003788E-3,7.599999905,
,,,-75.760006905E-3,3.04000020,,,,,-75.760006905E-3,8.400000572,
,,,-75.680002570E-3,3.04000020,,,,,-75.680002570E-3,8.800000191,
,,,-75.600005686E-3,3.04000020,,,,,-75.600005686E-3,9.199999809,
,,,-75.520008802E-3,3.04000020,,,,,-75.520008802E-3,10.0000000,
,,,-75.440004468E-3,3.04000020,,,,,-75.440004468E-3,10.4000006,
,,,-75.360007584E-3,3.12000012,,,,,-75.360007584E-3,10.8000002,
,,,-75.280003250E-3,3.12000012,,,,,-75.280003250E-3,11.1999998,
,,,-75.200006366E-3,3.12000012,,,,,-75.200006366E-3,11.6000004,
,,,-75.120009482E-3,3.12000012,,,,,-75.120009482E-3,12.4000006,
,,,-75.040005147E-3,3.12000012,,,,,-75.040005147E-3,12.4000006,
,,,-74.960008264E-3,3.12000012,,,,,-74.960008264E-3,13.1999998,
,,,-74.880003929E-3,3.12000012,,,,,-74.880003929E-3,13.6000004,
,,,-74.800007045E-3,3.04000020,,,,,-74.800007045E-3,14.0000000,
,,,-74.720002711E-3,3.04000020,,,,,-74.720002711E-3,14.4000006,
,,,-74.640005827E-3,3.04000020,,,,,-74.640005827E-3,14.8000002,
,,,-74.560008943E-3,3.04000020,,,,,-74.560008943E-3,15.1999998,
,,,-74.480004609E-3,3.04000020,,,,,-74.480004609E-3,15.6000004,
,,,-74.400007725E-3,3.04000020,,,,,-74.400007725E-3,16.0000000,
,,,-74.320003390E-3,3.04000020,,,,,-74.320003390E-3,16.0000000,
,,,-74.240006506E-3,3.04000020,,,,,-74.240006506E-3,16.8000011,
,,,-74.160002172E-3,3.04000020,,,,,-74.160002172E-3,16.8000011,
,,,-74.080005288E-3,2.96000028,,,,,-74.080005288E-3,17.2000008,
,,,-74.000008404E-3,2.96000028,,,,,-74.000008404E-3,17.6000004,
,,,-73.920004070E-3,2.96000028,,,,,-73.920004070E-3,18.0000000,
,,,-73.840007186E-3,2.88000011,,,,,-73.840007186E-3,18.0000000,
,,,-73.760002851E-3,2.96000028,,,,,-73.760002851E-3,18.3999996,
,,,-73.680005968E-3,2.88000011,,,,,-73.680005968E-3,18.8000011,
,,,-73.600009084E-3,2.80000019,,,,,-73.600009084E-3,18.8000011,
,,,-73.520004749E-3,2.80000019,,,,,-73.520004749E-3,19.2000008,
,,,-73.440007865E-3,2.80000019,,,,,-73.440007865E-3,19.6000004,
,,,-73.360003531E-3,2.80000019,,,,,-73.360003531E-3,19.6000004,
,,,-73.280006647E-3,2.72000027,,,,,-73.280006647E-3,19.6000004,
,,,-73.200002313E-3,2.72000027,,,,,-73.200002313E-3,20.0000000,
,,,-73.120005429E-3,2.72000027,,,,,-73.120005429E-3,20.0000000,
,,,-73.040008545E-3,2.6400001,,,,,-73.040008545E-3,20.0000000,
,,,-72.960004210E-3,2.6400001,,,,,-72.960004210E-3,20.39999962,
,,,-72.880007327E-3,2.5600002,,,,,-72.880007327E-3,20.0000000,
,,,-72.800002992E-3,2.4800003,,,,,-72.800002992E-3,20.39999962,
,,,-72.720006108E-3,2.4800003,,,,,-72.720006108E-3,20.39999962,
,,,-72.640009224E-3,2.4000001,,,,,-72.640009224E-3,20.39999962,
,,,-72.560004890E-3,2.4000001,,,,,-72.560004890E-3,20.39999962,
,,,-72.480008006E-3,2.3200002,,,,,-72.480008006E-3,20.39999962,
,,,-72.400003672E-3,2.3200002,,,,,-72.400003672E-3,20.80000114,
,,,-72.320006788E-3,2.2400002,,,,,-72.320006788E-3,20.80000114,
,,,-72.240002453E-3,2.1600001,,,,,-72.240002453E-3,20.80000114,
,,,-72.160005569E-3,2.0800002,,,,,-72.160005569E-3,20.39999962,
,,,-72.080008686E-3,2.0800002,,,,,-72.080008686E-3,20.80000114,
,,,-72.000004351E-3,2.0000002,,,,,-72.000004351E-3,20.39999962,
,,,-71.920007467E-3,1.9200001,,,,,-71.920007467E-3,20.39999962,
,,,-71.840003133E-3,1.8400002,,,,,-71.840003133E-3,20.80000114,
,,,-71.760006249E-3,1.8400002,,,,,-71.760006249E-3,20.39999962,
,,,-71.680009365E-3,1.6000001,,,,,-71.680009365E-3,20.39999962,
,,,-71.600005031E-3,1.6800001,,,,,-71.600005031E-3,20.39999962,
,,,-71.520008147E-3,1.6800001,,,,,-71.520008147E-3,20.0000000,
,,,-71.440003812E-3,1.6000001,,,,,-71.440003812E-3,20.0000000,
,,,-71.360006928E-3,1.4400001,,,,,-71.360006928E-3,19.6000004,
,,,-71.280002594E-3,1.4400001,,,,,-71.280002594E-3,19.6000004,
,,,-71.200005710E-3,1.3600001,,,,,-71.200005710E-3,19.6000004,
,,,-71.120008826E-3,1.2800001,,,,,-71.120008826E-3,19.6000004,
,,,-71.040004492E-3,1.1200001,,,,,-71.040004492E-3,19.2000008,
,,,-70.960007608E-3,1.0400001,,,,,-70.960007608E-3,19.2000008,
,,,-70.880003273E-3,960.000038147E-3,,,,,-70.880003273E-3,18.8000011,
,,,-70.800006390E-3,960.000038147E-3,,,,,-70.800006390E-3,18.8000011,
,,,-70.720009506E-3,800.000071526E-3,,,,,-70.720009506E-3,18.3999996,
,,,-70.640005171E-3,720.000028610E-3,,,,,-70.640005171E-3,18.3999996,
,,,-70.560008287E-3,640.000045300E-3,,,,,-70.560008287E-3,18.0000000,
,,,-70.480003953E-3,560.000061989E-3,,,,,-70.480003953E-3,18.0000000,
,,,-70.400007069E-3,480.000019073E-3,,,,,-70.400007069E-3,17.6000004,
,,,-70.320002735E-3,400.00003576E-3,,,,,-70.320002735E-3,17.2000008,
,,,-70.240005851E-3,320.00002265E-3,,,,,-70.240005851E-3,17.2000008,
,,,-70.160008967E-3,240.00000954E-3,,,,,-70.160008967E-3,16.8000011,
,,,-70.080004632E-3,80.000005662E-3,,,,,-70.080004632E-3,16.3999996,
,,,-70.000007749E-3,80.000005662E-3,,,,,-70.000007749E-3,16.3999996,
,,,-69.920003414E-3,0.0,,,,,-69.920003414E-3,16.0000000,
,,,-69.840006530E-3,-80.000005662E-3,,,,,-69.840006530E-3,15.6000004,
,,,-69.760009646E-3,-160.00001132E-3,,,,,-69.760009646E-3,15.1999998,
,,,-69.680005312E-3,-320.00002265E-3,,,,,-69.680005312E-3,14.8000002,
,,,-69.600008428E-3,-400.00003576E-3,,,,,-69.600008428E-3,14.4000006,
,,,-69.520004094E-3,-480.000019073E-3,,,,,-69.520004094E-3,14.0000000,
,,,-69.440007210E-3,-560.000061989E-3,,,,,-69.440007210E-3,14.0000000,
,,,-69.360002875E-3,-640.000045300E-3,,,,,-69.360002875E-3,13.6000004,
,,,-69.280005991E-3,-640.000045300E-3,,,,,-69.280005991E-3,13.1999998,
,,,-69.200009108E-3,-720.000028610E-3,,,,,-69.200009108E-3,12.8000002,
,,,-69.120004773E-3,-800.000071526E-3,,,,,-69.120004773E-3,12.4000006,
,,,-69.040007889E-3,-880.000054836E-3,,,,,-69.040007889E-3,12.0000000,
,,,-68.960003555E-3,-960.000038147E-3,,,,,-68.960003555E-3,11.6000004,
,,,-68.880006671E-3,-1.0400001,,,,,-68.880006671E-3,11.1999998,
,,,-68.800002337E-3,-1.1200001,,,,,-68.800002337E-3,10.8000002,
,,,-68.720005453E-3,-1.2000000,,,,,-68.720005453E-3,10.0000000,
,,,-68.640008569E-3,-1.2800001,,,,,-68.640008569E-3,10.0000000,
,,,-68.560004234E-3,-1.3600001,,,,,-68.560004234E-3,9.199999809,
,,,-68.480007350E-3,-1.4400001,,,,,-68.480007350E-3,8.800000191,
,,,-68.400003016E-3,-1.4400001,,,,,-68.400003016E-3,8.400000572,
,,,-68.320006132E-3,-1.6000001,,,,,-68.320006132E-3,8.000000000,
,,,-68.240009248E-3,-1.6800001,,,,,-68.240009248E-3,7.599999905,
,,,-68.160004914E-3,-1.6800001,,,,,-68.160004914E-3,7.20000029,
,,,-68.080008030E-3,-1.7600001,,,,,-68.080008030E-3,6.80000019,
,,,-68.000003695E-3,-1.8400002,,,,,-68.000003695E-3,6.00000000,
,,,-67.920006812E-3,-1.9200001,,,,,-67.920006812E-3,5.59999990,
,,,-67.840002477E-3,-2.0000002,,,,,-67.840002477E-3,5.20000029,
,,,-67.760005593E-3,-2.0000002,,,,,-67.760005593E-3,4.40000010,
,,,-67.680008709E-3,-2.0800002,,,,,-67.680008709E-3,4.00000000,
,,,-67.600004375E-3,-2.1600001,,,,,-67.600004375E-3,3.60000014,
,,,-67.520007491E-3,-2.1600001,,,,,-67.520007491E-3,3.20000005,
,,,-67.440003157E-3,-2.3200002,,,,,-67.440003157E-3,2.79999995,
,,,-67.360006273E-3,-2.2400002,,,,,-67.360006273E-3,2.4000001,
,,,-67.280009389E-3,-2.3200002,,,,,-67.280009389E-3,1.6000000,
,,,-67.200005054E-3,-2.4000001,,,,,-67.200005054E-3,800.000011921E-3,
,,,-67.120008171E-3,-2.4000001,,,,,-67.120008171E-3,800.000011921E-3,
,,,-67.040003836E-3,-2.4000001,,,,,-67.040003836E-3,0.0,
,,,-66.960006952E-3,-2.4800003,,,,,-66.960006952E-3,-400.00000596E-3,
,,,-66.880002618E-3,-2.5600002,,,,,-66.880002618E-3,-1.2000000,
,,,-66.800005734E-3,-2.5600002,,,,,-66.800005734E-3,-1.6000000,
,,,-66.720008850E-3,-2.6400001,,,,,-66.720008850E-3,-2.0000000,
,,,-66.640004516E-3,-2.6400001,,,,,-66.640004516E-3,-2.4000001,
,,,-66.560007632E-3,-2.6400001,,,,,-66.560007632E-3,-3.20000005,
,,,-66.480003297E-3,-2.72000027,,,,,-66.480003297E-3,-3.60000014,
,,,-66.400006413E-3,-2.72000027,,,,,-66.400006413E-3,-4.00000000,
,,,-66.320009530E-3,-2.80000019,,,,,-66.320009530E-3,-4.80000019,
,,,-66.240005195E-3,-2.80000019,,,,,-66.240005195E-3,-5.20000029,
,,,-66.160008311E-3,-2.80000019,,,,,-66.160008311E-3,-6.00000000,
,,,-66.080003977E-3,-2.80000019,,,,,-66.080003977E-3,-6.40000010,
,,,-66.000007093E-3,-2.88000011,,,,,-66.000007093E-3,-6.80000019,
,,,-65.920002759E-3,-2.88000011,,,,,-65.920002759E-3,-7.20000029,
,,,-65.840005875E-3,-2.88000011,,,,,-65.840005875E-3,-8.000000000,
,,,-65.760008991E-3,-2.96000028,,,,,-65.760008991E-3,-8.400000572,
,,,-65.680004656E-3,-2.96000028,,,,,-65.680004656E-3,-8.800000191,
,,,-65.600007772E-3,-2.96000028,,,,,-65.600007772E-3,-9.199999809,
,,,-65.520003438E-3,-2.96000028,,,,,-65.520003438E-3,-9.600000381,
,,,-65.440006554E-3,-2.96000028,,,,,-65.440006554E-3,-10.4000006,
,,,-65.360009670E-3,-2.96000028,,,,,-65.360009670E-3,-10.8000002,
,,,-65.280005336E-3,-2.96000028,,,,,-65.280005336E-3,-11.1999998,
,,,-65.200008452E-3,-3.04000020,,,,,-65.200008452E-3,-12.0000000,
,,,-65.120004117E-3,-2.96000028,,,,,-65.120004117E-3,-12.4000006,
,,,-65.040007234E-3,-2.96000028,,,,,-65.040007234E-3,-12.8000002,
,,,-64.960002899E-3,-2.96000028,,,,,-64.960002899E-3,-13.1999998,
,,,-64.880006015E-3,-2.96000028,,,,,-64.880006015E-3,-13.6000004,
,,,-64.800009131E-3,-2.96000028,,,,,-64.800009131E-3,-14.0000000,
,,,-64.720004797E-3,-2.96000028,,,,,-64.720004797E-3,-14.4000006,
,,,-64.640007913E-3,-2.96000028,,,,,-64.640007913E-3,-14.8000002,
,,,-64.560003579E-3,-2.96000028,,,,,-64.560003579E-3,-15.1999998,
,,,-64.480006695E-3,-2.96000028,,,,,-64.480006695E-3,-16.0000000,
,,,-64.400002360E-3,-2.88000011,,,,,-64.400002360E-3,-16.0000000,
,,,-64.320005476E-3,-2.88000011,,,,,-64.320005476E-3,-16.3999996,
,,,-64.240008593E-3,-2.88000011,,,,,-64.240008593E-3,-16.8000011,
,,,-64.160004258E-3,-2.88000011,,,,,-64.160004258E-3,-17.2000008,
,,,-64.080007374E-3,-2.88000011,,,,,-64.080007374E-3,-17.6000004,
,,,-64.000003040E-3,-2.88000011,,,,,-64.000003040E-3,-17.6000004,
,,,-63.920006156E-3,-2.80000019,,,,,-63.920006156E-3,-18.0000000,
,,,-63.840009272E-3,-2.80000019,,,,,-63.840009272E-3,-18.3999996,
,,,-63.760004938E-3,-2.80000019,,,,,-63.760004938E-3,-18.8000011,
,,,-63.680008054E-3,-2.72000027,,,,,-63.680008054E-3,-18.8000011,
,,,-63.600003719E-3,-2.72000027,,,,,-63.600003719E-3,-19.2000008,
,,,-63.520006835E-3,-2.72000027,,,,,-63.520006835E-3,-19.2000008,
,,,-63.440002501E-3,-2.6400001,,,,,-63.440002501E-3,-19.6000004,
,,,-63.360005617E-3,-2.6400001,,,,,-63.360005617E-3,-19.6000004,
,,,-63.280008733E-3,-2.6400001,,,,,-63.280008733E-3,-19.6000004,
,,,-63.200004399E-3,-2.5600002,,,,,-63.200004399E-3,-20.0000000,
,,,-63.120007515E-3,-2.5600002,,,,,-63.120007515E-3,-20.39999962,
,,,-63.040003181E-3,-2.5600002,,,,,-63.040003181E-3,-20.39999962,
,,,-62.960006297E-3,-2.4800003,,,,,-62.960006297E-3,-20.39999962,
,,,-62.880009413E-3,-2.4800003,,,,,-62.880009413E-3,-20.39999962,
,,,-62.800005078E-3,-2.4000001,,,,,-62.800005078E-3,-20.80000114,
,,,-62.720008194E-3,-2.4000001,,,,,-62.720008194E-3,-20.80000114,
,,,-62.640003860E-3,-2.3200002,,,,,-62.640003860E-3,-20.80000114,
,,,-62.560006976E-3,-2.2400002,,,,,-62.560006976E-3,-20.80000114,
,,,-62.480006367E-3,-2.1600001,,,,,-62.480006367E-3,-20.80000114,
,,,-62.400005758E-3,-2.1600001,,,,,-62.400005758E-3,-20.80000114,
,,,-62.320005149E-3,-2.0800002,,,,,-62.320005149E-3,-20.80000114,
,,,-62.240004539E-3,-2.0000002,,,,,-62.240004539E-3,-20.80000114,
,,,-62.160007656E-3,-2.0000002,,,,,-62.160007656E-3,-20.80000114,
,,,-62.080007046E-3,-1.9200001,,,,,-62.080007046E-3,-20.80000114,
,,,-62.000006437E-3,-1.9200001,,,,,-62.000006437E-3,-20.80000114,
,,,-61.920005828E-3,-1.7600001,,,,,-61.920005828E-3,-20.80000114,
,,,-61.840005219E-3,-1.7600001,,,,,-61.840005219E-3,-20.80000114,
,,,-61.760004610E-3,-1.6800001,,,,,-61.760004610E-3,-20.39999962,
,,,-61.680007726E-3,-1.6800001,,,,,-61.680007726E-3,-20.80000114,
,,,-61.600007117E-3,-1.5200001,,,,,-61.600007117E-3,-20.39999962,
,,,-61.520006508E-3,-1.5200001,,,,,-61.520006508E-3,-20.39999962,
,,,-61.440005898E-3,-1.3600001,,,,,-61.440005898E-3,-20.0000000,
,,,-61.360005289E-3,-1.3600001,,,,,-61.360005289E-3,-20.0000000,
,,,-61.280004680E-3,-1.2800001,,,,,-61.280004680E-3,-20.0000000,
,,,-61.200007796E-3,-1.2000000,,,,,-61.200007796E-3,-20.0000000,
,,,-61.120007187E-3,-1.1200001,,,,,-61.120007187E-3,-19.6000004,
,,,-61.040006578E-3,-1.0400001,,,,,-61.040006578E-3,-19.6000004,
,,,-60.960005969E-3,-960.000038147E-3,,,,,-60.960005969E-3,-19.2000008,
,,,-60.880005360E-3,-880.000054836E-3,,,,,-60.880005360E-3,-19.2000008,
,,,-60.800004750E-3,-800.000071526E-3,,,,,-60.800004750E-3,-18.8000011,
,,,-60.720007867E-3,-640.000045300E-3,,,,,-60.720007867E-3,-18.8000011,
,,,-60.640007257E-3,-640.000045300E-3,,,,,-60.640007257E-3,-18.3999996,
,,,-60.560006648E-3,-480.000019073E-3,,,,,-60.560006648E-3,-18.3999996,
,,,-60.480006039E-3,-400.00003576E-3,,,,,-60.480006039E-3,-18.0000000,
,,,-60.400005430E-3,-320.00002265E-3,,,,,-60.400005430E-3,-17.6000004,
,,,-60.320004821E-3,-240.00000954E-3,,,,,-60.320004821E-3,-17.2000008,
,,,-60.240007937E-3,-160.00001132E-3,,,,,-60.240007937E-3,-17.2000008,
,,,-60.160007328E-3,-80.000005662E-3,,,,,-60.160007328E-3,-17.2000008,
,,,-60.080006719E-3,0.0,,,,,-60.080006719E-3,-16.8000011,
,,,-60.000006109E-3,80.000005662E-3,,,,,-60.000006109E-3,-16.3999996,
,,,-59.920005500E-3,160.00001132E-3,,,,,-59.920005500E-3,-16.0000000,
,,,-59.840004891E-3,160.00001132E-3,,,,,-59.840004891E-3,-15.6000004,
,,,-59.760008007E-3,320.00002265E-3,,,,,-59.760008007E-3,-15.1999998,
,,,-59.680007398E-3,400.00003576E-3,,,,,-59.680007398E-3,-15.1999998,
,,,-59.600006789E-3,480.000019073E-3,,,,,-59.600006789E-3,-14.8000002,
,,,-59.520006180E-3,560.000061989E-3,,,,,-59.520006180E-3,-14.4000006,
,,,-59.440005571E-3,640.000045300E-3,,,,,-59.440005571E-3,-14.0000000,
,,,-59.360004961E-3,720.000028610E-3,,,,,-59.360004961E-3,-13.6000004,
,,,-59.280004352E-3,800.000071526E-3,,,,,-59.280004352E-3,-13.1999998,
,,,-59.200007468E-3,880.000054836E-3,,,,,-59.200007468E-3,-13.1999998,
,,,-59.120006859E-3,960.000038147E-3,,,,,-59.120006859E-3,-12.4000006,
,,,-59.040006250E-3,1.1200001,,,,,-59.040006250E-3,-12.0000000,
,,,-58.960005641E-3,1.1200001,,,,,-58.960005641E-3,-11.6000004,
,,,-58.880005032E-3,1.2000000,,,,,-58.880005032E-3,-11.1999998,
,,,-58.800004423E-3,1.2800001,,,,,-58.800004423E-3,-10.8000002,
,,,-58.720007539E-3,1.3600001,,,,,-58.720007539E-3,-10.0000000,
,,,-58.640006930E-3,1.4400001,,,,,-58.640006930E-3,-10.0000000,
,,,-58.560006320E-3,1.5200001,,,,,-58.560006320E-3,-9.199999809,
,,,-58.480005711E-3,1.6000001,,,,,-58.480005711E-3,-8.800000191,
,,,-58.400005102E-3,1.6800001,,,,,-58.400005102E-3,-8.400000572,
,,,-58.320004493E-3,1.6800001,,,,,-58.320004493E-3,-8.000000000,
,,,-58.240007609E-3,1.7600001,,,,,-58.240007609E-3,-7.599999905,
,,,-58.160007000E-3,1.8400002,,,,,-58.160007000E-3,-7.20000029,
,,,-58.080006391E-3,1.9200001,,,,,-58.080006391E-3,-6.80000019,
,,,-58.000005782E-3,2.0000002,,,,,-58.000005782E-3,-6.00000000,
,,,-57.920005172E-3,2.0000002,,,,,-57.920005172E-3,-5.59999990,
,,,-57.840004563E-3,2.0800002,,,,,-57.840004563E-3,-5.20000029,
,,,-57.760007679E-3,2.1600001,,,,,-57.760007679E-3,-4.80000019,
,,,-57.680007070E-3,2.2400002,,,,,-57.680007070E-3,-4.40000010,
,,,-57.600006461E-3,2.2400002,,,,,-57.600006461E-3,-3.60000014,
,,,-57.520005852E-3,2.3200002,,,,,-57.520005852E-3,-3.20000005,
,,,-57.440005243E-3,2.3200002,,,,,-57.440005243E-3,-2.79999995,
,,,-57.360004634E-3,2.4000001,,,,,-57.360004634E-3,-2.0000000,
,,,-57.280007750E-3,2.4800003,,,,,-57.280007750E-3,-1.6000000,
,,,-57.200007141E-3,2.4800003,,,,,-57.200007141E-3,-1.2000000,
,,,-57.120006531E-3,2.5600002,,,,,-57.120006531E-3,-800.000011921E-3,
,,,-57.040005922E-3,2.6400001,,,,,-57.040005922E-3,0.0,
,,,-56.960005313E-3,2.6400001,,,,,-56.960005313E-3,400.00000596E-3,
,,,-56.880004704E-3,2.6400001,,,,,-56.880004704E-3,1.2000000,
,,,-56.800007820E-3,2.72000027,,,,,-56.800007820E-3,1.6000000,
,,,-56.720007211E-3,2.72000027,,,,,-56.720007211E-3,2.0000000,
,,,-56.640006602E-3,2.80000019,,,,,-56.640006602E-3,2.4000001,
,,,-56.560005993E-3,2.80000019,,,,,-56.560005993E-3,2.79999995,
,,,-56.480005383E-3,2.80000019,,,,,-56.480005383E-3,3.60000014,
,,,-56.400004774E-3,2.80000019,,,,,-56.400004774E-3,4.00000000,
