material1-BO1/1500.csv

Record Length,2500,Points,-24.99999851E-3,1.6799999,,Record Length,2500,Points,-24.99999851E-3,-664.000034332E-3,
Sample Interval,19.9999995E-6,s,-24.97999929E-3,1.6799999,,Sample Interval,19.9999995E-6,s,-24.97999929E-3,-672.000050545E-3,
Trigger Point,1.2500000E3,Samples,-24.95999821E-3,1.7199999,,Trigger Point,1.2500000E3,Samples,-24.95999821E-3,-656.000018120E-3,
,,,-24.93999898E-3,1.7199999,,,,,-24.93999898E-3,-656.000018120E-3,
,,,-24.91999790E-3,1.7600000,,,,,-24.91999790E-3,-656.000018120E-3,
,,,-24.89999868E-3,1.7600000,,,,,-24.89999868E-3,-680.000007153E-3,
Source,CH1,,-24.87999760E-3,1.8399999,,Source,CH2,,-24.87999760E-3,-656.000018120E-3,
Vertical Units,Volts,,-24.85999838E-3,1.8000000,,Vertical Units,Volts,,-24.85999838E-3,-656.000018120E-3,
Vertical Scale,999.999977648E-3,,-24.83999915E-3,1.8399999,,Vertical Scale,200.00000950E-3,,-24.83999915E-3,-656.000018120E-3,
Vertical Offset,0,,-24.81999807E-3,1.8800000,,Vertical Offset,0,,-24.81999807E-3,-656.000018120E-3,
Horizontal Units,s,,-24.79999885E-3,1.8800000,,Horizontal Units,s,,-24.79999885E-3,-656.000018120E-3,
Horizontal Scale,4.99999987E-3,,-24.77999777E-3,1.8800000,,Horizontal Scale,4.99999987E-3,,-24.77999777E-3,-664.000034332E-3,
Pt Fmt,Y,,-24.75999855E-3,1.9200000,,Pt Fmt,Y,,-24.75999855E-3,-632.000029087E-3,
Yzero,0.0,,-24.73999932E-3,1.9599999,,Yzero,0.0,,-24.73999932E-3,-648.000001907E-3,
Probe Atten,10.0000000,,-24.71999824E-3,2.0000000,,Probe Atten,10.0000000,,-24.71999824E-3,-680.000007153E-3,
,,,-24.69999902E-3,2.0000000,,,,,-24.69999902E-3,-656.000018120E-3,
Note,TBS 1052B-EDU - 11:36:22 AM   07-Jan-24,,-24.67999794E-3,2.0400000,,Note,TBS 1052B-EDU - 11:36:22 AM   07-Jan-24,,-24.67999794E-3,-656.000018120E-3,
,,,-24.65999871E-3,2.0400000,,,,,-24.65999871E-3,-664.000034332E-3,
,,,-24.63999763E-3,2.0799999,,,,,-24.63999763E-3,-656.000018120E-3,
,,,-24.61999841E-3,2.1199999,,,,,-24.61999841E-3,-648.000001907E-3,
,,,-24.59999919E-3,2.1599998,,,,,-24.59999919E-3,-648.000001907E-3,
,,,-24.57999811E-3,2.1599998,,,,,-24.57999811E-3,-656.000018120E-3,
,,,-24.55999888E-3,2.2000000,,,,,-24.55999888E-3,-648.000001907E-3,
,,,-24.53999780E-3,2.2000000,,,,,-24.53999780E-3,-640.000045300E-3,
,,,-24.51999858E-3,2.2400000,,,,,-24.51999858E-3,-664.000034332E-3,
,,,-24.49999936E-3,2.2800000,,,,,-24.49999936E-3,-664.000034332E-3,
,,,-24.47999828E-3,2.2800000,,,,,-24.47999828E-3,-648.000001907E-3,
,,,-24.45999905E-3,2.3199999,,,,,-24.45999905E-3,-640.000045300E-3,
,,,-24.43999797E-3,2.3599999,,,,,-24.43999797E-3,-664.000034332E-3,
,,,-24.41999875E-3,2.3999999,,,,,-24.41999875E-3,-648.000001907E-3,
,,,-24.39999767E-3,2.3599999,,,,,-24.39999767E-3,-640.000045300E-3,
,,,-24.37999845E-3,2.4400001,,,,,-24.37999845E-3,-656.000018120E-3,
,,,-24.35999922E-3,2.4400001,,,,,-24.35999922E-3,-640.000045300E-3,
,,,-24.33999814E-3,2.4800000,,,,,-24.33999814E-3,-656.000018120E-3,
,,,-24.31999892E-3,2.4800000,,,,,-24.31999892E-3,-640.000045300E-3,
,,,-24.29999784E-3,2.5200000,,,,,-24.29999784E-3,-656.000018120E-3,
,,,-24.27999862E-3,2.5200000,,,,,-24.27999862E-3,-656.000018120E-3,
,,,-24.25999939E-3,2.5599999,,,,,-24.25999939E-3,-632.000029087E-3,
,,,-24.23999831E-3,2.5999999,,,,,-24.23999831E-3,-648.000001907E-3,
,,,-24.21999909E-3,2.5999999,,,,,-24.21999909E-3,-640.000045300E-3,
,,,-24.19999801E-3,2.6399999,,,,,-24.19999801E-3,-648.000001907E-3,
,,,-24.17999879E-3,2.6399999,,,,,-24.17999879E-3,-640.000045300E-3,
,,,-24.15999770E-3,2.6399999,,,,,-24.15999770E-3,-656.000018120E-3,
,,,-24.13999848E-3,2.6799998,,,,,-24.13999848E-3,-648.000001907E-3,
,,,-24.11999926E-3,2.72000003,,,,,-24.11999926E-3,-632.000029087E-3,
,,,-24.09999818E-3,2.75999999,,,,,-24.09999818E-3,-632.000029087E-3,
,,,-24.07999896E-3,2.75999999,,,,,-24.07999896E-3,-640.000045300E-3,
,,,-24.05999787E-3,2.79999995,,,,,-24.05999787E-3,-632.000029087E-3,
,,,-24.03999865E-3,2.83999991,,,,,-24.03999865E-3,-632.000029087E-3,
,,,-24.01999943E-3,2.83999991,,,,,-24.01999943E-3,-632.000029087E-3,
,,,-23.99999835E-3,2.83999991,,,,,-23.99999835E-3,-632.000029087E-3,
,,,-23.97999913E-3,2.83999991,,,,,-23.97999913E-3,-632.000029087E-3,
,,,-23.95999804E-3,2.91999984,,,,,-23.95999804E-3,-632.000029087E-3,
,,,-23.93999882E-3,2.91999984,,,,,-23.93999882E-3,-648.000001907E-3,
,,,-23.91999774E-3,2.96000004,,,,,-23.91999774E-3,-656.000018120E-3,
,,,-23.89999852E-3,2.96000004,,,,,-23.89999852E-3,-624.000012875E-3,
,,,-23.87999929E-3,3.00000000,,,,,-23.87999929E-3,-624.000012875E-3,
,,,-23.85999821E-3,3.03999996,,,,,-23.85999821E-3,-632.000029087E-3,
,,,-23.83999899E-3,3.03999996,,,,,-23.83999899E-3,-632.000029087E-3,
,,,-23.81999791E-3,3.07999992,,,,,-23.81999791E-3,-632.000029087E-3,
,,,-23.79999869E-3,3.03999996,,,,,-23.79999869E-3,-632.000029087E-3,
,,,-23.77999946E-3,3.07999992,,,,,-23.77999946E-3,-640.000045300E-3,
,,,-23.75999838E-3,3.11999989,,,,,-23.75999838E-3,-616.000056267E-3,
,,,-23.73999916E-3,3.11999989,,,,,-23.73999916E-3,-624.000012875E-3,
,,,-23.71999808E-3,3.15999985,,,,,-23.71999808E-3,-624.000012875E-3,
,,,-23.69999886E-3,3.15999985,,,,,-23.69999886E-3,-632.000029087E-3,
,,,-23.67999777E-3,3.19999981,,,,,-23.67999777E-3,-608.000040054E-3,
,,,-23.65999855E-3,3.19999981,,,,,-23.65999855E-3,-624.000012875E-3,
,,,-23.63999933E-3,3.19999981,,,,,-23.63999933E-3,-616.000056267E-3,
,,,-23.61999825E-3,3.24000001,,,,,-23.61999825E-3,-632.000029087E-3,
,,,-23.59999903E-3,3.24000001,,,,,-23.59999903E-3,-616.000056267E-3,
,,,-23.57999794E-3,3.27999997,,,,,-23.57999794E-3,-616.000056267E-3,
,,,-23.55999872E-3,3.27999997,,,,,-23.55999872E-3,-624.000012875E-3,
,,,-23.53999764E-3,3.27999997,,,,,-23.53999764E-3,-624.000012875E-3,
,,,-23.51999842E-3,3.31999993,,,,,-23.51999842E-3,-624.000012875E-3,
,,,-23.49999920E-3,3.35999990,,,,,-23.49999920E-3,-608.000040054E-3,
,,,-23.47999811E-3,3.39999986,,,,,-23.47999811E-3,-624.000012875E-3,
,,,-23.45999889E-3,3.35999990,,,,,-23.45999889E-3,-624.000012875E-3,
,,,-23.43999781E-3,3.39999986,,,,,-23.43999781E-3,-624.000012875E-3,
,,,-23.41999859E-3,3.39999986,,,,,-23.41999859E-3,-632.000029087E-3,
,,,-23.39999937E-3,3.39999986,,,,,-23.39999937E-3,-608.000040054E-3,
,,,-23.37999828E-3,3.43999982,,,,,-23.37999828E-3,-608.000040054E-3,
,,,-23.35999906E-3,3.43999982,,,,,-23.35999906E-3,-624.000012875E-3,
,,,-23.33999798E-3,3.43999982,,,,,-23.33999798E-3,-600.000023842E-3,
,,,-23.31999876E-3,3.48000002,,,,,-23.31999876E-3,-592.000007629E-3,
,,,-23.29999767E-3,3.48000002,,,,,-23.29999767E-3,-608.000040054E-3,
,,,-23.27999845E-3,3.51999998,,,,,-23.27999845E-3,-608.000040054E-3,
,,,-23.25999923E-3,3.51999998,,,,,-23.25999923E-3,-624.000012875E-3,
,,,-23.23999815E-3,3.55999994,,,,,-23.23999815E-3,-592.000007629E-3,
,,,-23.21999893E-3,3.55999994,,,,,-23.21999893E-3,-616.000056267E-3,
,,,-23.19999784E-3,3.55999994,,,,,-23.19999784E-3,-600.000023842E-3,
,,,-23.17999862E-3,3.59999990,,,,,-23.17999862E-3,-592.000007629E-3,
,,,-23.15999940E-3,3.59999990,,,,,-23.15999940E-3,-600.000023842E-3,
,,,-23.13999832E-3,3.63999987,,,,,-23.13999832E-3,-592.000007629E-3,
,,,-23.11999910E-3,3.63999987,,,,,-23.11999910E-3,-592.000007629E-3,
,,,-23.09999801E-3,3.63999987,,,,,-23.09999801E-3,-584.000051022E-3,
,,,-23.07999879E-3,3.63999987,,,,,-23.07999879E-3,-592.000007629E-3,
,,,-23.05999771E-3,3.67999983,,,,,-23.05999771E-3,-608.000040054E-3,
,,,-23.03999849E-3,3.67999983,,,,,-23.03999849E-3,-592.000007629E-3,
,,,-23.01999927E-3,3.67999983,,,,,-23.01999927E-3,-592.000007629E-3,
,,,-22.99999818E-3,3.67999983,,,,,-22.99999818E-3,-576.000034809E-3,
,,,-22.97999896E-3,3.72000003,,,,,-22.97999896E-3,-592.000007629E-3,
,,,-22.95999788E-3,3.72000003,,,,,-22.95999788E-3,-584.000051022E-3,
,,,-22.93999866E-3,3.75999999,,,,,-22.93999866E-3,-584.000051022E-3,
,,,-22.91999944E-3,3.75999999,,,,,-22.91999944E-3,-568.000018597E-3,
,,,-22.89999835E-3,3.72000003,,,,,-22.89999835E-3,-576.000034809E-3,
,,,-22.87999913E-3,3.75999999,,,,,-22.87999913E-3,-576.000034809E-3,
,,,-22.85999805E-3,3.79999995,,,,,-22.85999805E-3,-584.000051022E-3,
,,,-22.83999883E-3,3.79999995,,,,,-22.83999883E-3,-568.000018597E-3,
,,,-22.81999774E-3,3.75999999,,,,,-22.81999774E-3,-592.000007629E-3,
,,,-22.79999852E-3,3.79999995,,,,,-22.79999852E-3,-584.000051022E-3,
,,,-22.77999930E-3,3.79999995,,,,,-22.77999930E-3,-576.000034809E-3,
,,,-22.75999822E-3,3.79999995,,,,,-22.75999822E-3,-576.000034809E-3,
,,,-22.73999900E-3,3.83999991,,,,,-22.73999900E-3,-592.000007629E-3,
,,,-22.71999791E-3,3.79999995,,,,,-22.71999791E-3,-568.000018597E-3,
,,,-22.69999869E-3,3.79999995,,,,,-22.69999869E-3,-552.000045776E-3,
,,,-22.67999947E-3,3.79999995,,,,,-22.67999947E-3,-560.000002384E-3,
,,,-22.65999839E-3,3.83999991,,,,,-22.65999839E-3,-560.000002384E-3,
,,,-22.63999917E-3,3.83999991,,,,,-22.63999917E-3,-568.000018597E-3,
,,,-22.61999808E-3,3.83999991,,,,,-22.61999808E-3,-552.000045776E-3,
,,,-22.59999886E-3,3.83999991,,,,,-22.59999886E-3,-552.000045776E-3,
,,,-22.57999778E-3,3.83999991,,,,,-22.57999778E-3,-560.000002384E-3,
,,,-22.55999856E-3,3.83999991,,,,,-22.55999856E-3,-568.000018597E-3,
,,,-22.53999934E-3,3.83999991,,,,,-22.53999934E-3,-560.000002384E-3,
,,,-22.51999825E-3,3.87999988,,,,,-22.51999825E-3,-520.000040531E-3,
,,,-22.49999903E-3,3.87999988,,,,,-22.49999903E-3,-552.000045776E-3,
,,,-22.47999795E-3,3.83999991,,,,,-22.47999795E-3,-560.000002384E-3,
,,,-22.45999873E-3,3.87999988,,,,,-22.45999873E-3,-536.000013351E-3,
,,,-22.43999764E-3,3.87999988,,,,,-22.43999764E-3,-536.000013351E-3,
,,,-22.41999842E-3,3.87999988,,,,,-22.41999842E-3,-527.999997139E-3,
,,,-22.39999920E-3,3.87999988,,,,,-22.39999920E-3,-536.000013351E-3,
,,,-22.37999812E-3,3.87999988,,,,,-22.37999812E-3,-536.000013351E-3,
,,,-22.35999890E-3,3.83999991,,,,,-22.35999890E-3,-527.999997139E-3,
,,,-22.33999781E-3,3.87999988,,,,,-22.33999781E-3,-520.000040531E-3,
,,,-22.31999859E-3,3.87999988,,,,,-22.31999859E-3,-527.999997139E-3,
,,,-22.29999937E-3,3.87999988,,,,,-22.29999937E-3,-536.000013351E-3,
,,,-22.27999829E-3,3.87999988,,,,,-22.27999829E-3,-512.000024319E-3,
,,,-22.25999907E-3,3.87999988,,,,,-22.25999907E-3,-520.000040531E-3,
,,,-22.23999798E-3,3.87999988,,,,,-22.23999798E-3,-520.000040531E-3,
,,,-22.21999876E-3,3.87999988,,,,,-22.21999876E-3,-496.000021696E-3,
,,,-22.19999768E-3,3.87999988,,,,,-22.19999768E-3,-488.000035286E-3,
,,,-22.17999846E-3,3.87999988,,,,,-22.17999846E-3,-512.000024319E-3,
,,,-22.15999924E-3,3.87999988,,,,,-22.15999924E-3,-520.000040531E-3,
,,,-22.13999815E-3,3.83999991,,,,,-22.13999815E-3,-496.000021696E-3,
,,,-22.11999893E-3,3.83999991,,,,,-22.11999893E-3,-496.000021696E-3,
,,,-22.09999785E-3,3.83999991,,,,,-22.09999785E-3,-536.000013351E-3,
,,,-22.07999863E-3,3.87999988,,,,,-22.07999863E-3,-488.000035286E-3,
,,,-22.05999941E-3,3.87999988,,,,,-22.05999941E-3,-496.000021696E-3,
,,,-22.03999832E-3,3.83999991,,,,,-22.03999832E-3,-488.000035286E-3,
,,,-22.01999910E-3,3.83999991,,,,,-22.01999910E-3,-488.000035286E-3,
,,,-21.99999802E-3,3.83999991,,,,,-21.99999802E-3,-480.000019073E-3,
,,,-21.97999880E-3,3.83999991,,,,,-21.97999880E-3,-488.000035286E-3,
,,,-21.95999771E-3,3.79999995,,,,,-21.95999771E-3,-488.000035286E-3,
,,,-21.93999849E-3,3.79999995,,,,,-21.93999849E-3,-480.000019073E-3,
,,,-21.91999927E-3,3.79999995,,,,,-21.91999927E-3,-472.000032663E-3,
,,,-21.89999819E-3,3.79999995,,,,,-21.89999819E-3,-472.000032663E-3,
,,,-21.87999897E-3,3.79999995,,,,,-21.87999897E-3,-472.000032663E-3,
,,,-21.85999788E-3,3.79999995,,,,,-21.85999788E-3,-472.000032663E-3,
,,,-21.83999866E-3,3.79999995,,,,,-21.83999866E-3,-472.000032663E-3,
,,,-21.81999944E-3,3.75999999,,,,,-21.81999944E-3,-456.000030041E-3,
,,,-21.79999836E-3,3.79999995,,,,,-21.79999836E-3,-472.000032663E-3,
,,,-21.77999914E-3,3.75999999,,,,,-21.77999914E-3,-432.000011206E-3,
,,,-21.75999805E-3,3.79999995,,,,,-21.75999805E-3,-480.000019073E-3,
,,,-21.73999883E-3,3.79999995,,,,,-21.73999883E-3,-424.000024796E-3,
,,,-21.71999775E-3,3.79999995,,,,,-21.71999775E-3,-440.000027418E-3,
,,,-21.69999853E-3,3.72000003,,,,,-21.69999853E-3,-440.000027418E-3,
,,,-21.67999931E-3,3.75999999,,,,,-21.67999931E-3,-432.000011206E-3,
,,,-21.65999822E-3,3.72000003,,,,,-21.65999822E-3,-440.000027418E-3,
,,,-21.63999900E-3,3.72000003,,,,,-21.63999900E-3,-416.000008583E-3,
,,,-21.61999792E-3,3.72000003,,,,,-21.61999792E-3,-424.000024796E-3,
,,,-21.59999870E-3,3.72000003,,,,,-21.59999870E-3,-424.000024796E-3,
,,,-21.57999948E-3,3.72000003,,,,,-21.57999948E-3,-400.00000596E-3,
,,,-21.55999839E-3,3.72000003,,,,,-21.55999839E-3,-416.000008583E-3,
,,,-21.53999917E-3,3.67999983,,,,,-21.53999917E-3,-408.000022173E-3,
,,,-21.51999809E-3,3.72000003,,,,,-21.51999809E-3,-408.000022173E-3,
,,,-21.49999887E-3,3.67999983,,,,,-21.49999887E-3,-408.000022173E-3,
,,,-21.47999778E-3,3.63999987,,,,,-21.47999778E-3,-416.000008583E-3,
,,,-21.45999856E-3,3.63999987,,,,,-21.45999856E-3,-384.00000334E-3,
,,,-21.43999934E-3,3.63999987,,,,,-21.43999934E-3,-400.00000596E-3,
,,,-21.41999826E-3,3.67999983,,,,,-21.41999826E-3,-408.000022173E-3,
,,,-21.39999904E-3,3.59999990,,,,,-21.39999904E-3,-376.00001693E-3,
,,,-21.37999795E-3,3.63999987,,,,,-21.37999795E-3,-376.00001693E-3,
,,,-21.35999873E-3,3.59999990,,,,,-21.35999873E-3,-360.00001431E-3,
,,,-21.33999951E-3,3.59999990,,,,,-21.33999951E-3,-368.00003052E-3,
,,,-21.31999843E-3,3.59999990,,,,,-21.31999843E-3,-376.00001693E-3,
,,,-21.29999921E-3,3.59999990,,,,,-21.29999921E-3,-368.00003052E-3,
,,,-21.27999812E-3,3.59999990,,,,,-21.27999812E-3,-344.00001168E-3,
,,,-21.25999890E-3,3.55999994,,,,,-21.25999890E-3,-352.00002789E-3,
,,,-21.23999782E-3,3.55999994,,,,,-21.23999782E-3,-352.00002789E-3,
,,,-21.21999860E-3,3.55999994,,,,,-21.21999860E-3,-352.00002789E-3,
,,,-21.19999938E-3,3.55999994,,,,,-21.19999938E-3,-344.00001168E-3,
,,,-21.17999829E-3,3.51999998,,,,,-21.17999829E-3,-352.00002789E-3,
,,,-21.15999907E-3,3.51999998,,,,,-21.15999907E-3,-328.00000906E-3,
,,,-21.13999799E-3,3.51999998,,,,,-21.13999799E-3,-336.00002527E-3,
,,,-21.11999877E-3,3.48000002,,,,,-21.11999877E-3,-312.00000644E-3,
,,,-21.09999768E-3,3.48000002,,,,,-21.09999768E-3,-320.00002265E-3,
,,,-21.07999846E-3,3.48000002,,,,,-21.07999846E-3,-320.00002265E-3,
,,,-21.05999924E-3,3.48000002,,,,,-21.05999924E-3,-304.00002003E-3,
,,,-21.03999816E-3,3.43999982,,,,,-21.03999816E-3,-312.00000644E-3,
,,,-21.01999894E-3,3.39999986,,,,,-21.01999894E-3,-296.00000381E-3,
,,,-20.99999785E-3,3.39999986,,,,,-20.99999785E-3,-304.00002003E-3,
,,,-20.97999863E-3,3.39999986,,,,,-20.97999863E-3,-288.00001740E-3,
,,,-20.95999941E-3,3.39999986,,,,,-20.95999941E-3,-280.00000119E-3,
,,,-20.93999833E-3,3.39999986,,,,,-20.93999833E-3,-288.00001740E-3,
,,,-20.91999911E-3,3.35999990,,,,,-20.91999911E-3,-272.00001478E-3,
,,,-20.89999802E-3,3.35999990,,,,,-20.89999802E-3,-280.00000119E-3,
,,,-20.87999880E-3,3.35999990,,,,,-20.87999880E-3,-248.00001085E-3,
,,,-20.85999772E-3,3.31999993,,,,,-20.85999772E-3,-248.00001085E-3,
,,,-20.83999850E-3,3.27999997,,,,,-20.83999850E-3,-256.00001216E-3,
,,,-20.81999928E-3,3.27999997,,,,,-20.81999928E-3,-240.00000954E-3,
,,,-20.79999819E-3,3.27999997,,,,,-20.79999819E-3,-256.00001216E-3,
,,,-20.77999897E-3,3.27999997,,,,,-20.77999897E-3,-240.00000954E-3,
,,,-20.75999789E-3,3.27999997,,,,,-20.75999789E-3,-232.00000823E-3,
,,,-20.73999867E-3,3.24000001,,,,,-20.73999867E-3,-224.00000691E-3,
,,,-20.71999945E-3,3.24000001,,,,,-20.71999945E-3,-216.00000560E-3,
,,,-20.69999836E-3,3.19999981,,,,,-20.69999836E-3,-208.00000429E-3,
,,,-20.67999914E-3,3.19999981,,,,,-20.67999914E-3,-208.00000429E-3,
,,,-20.65999806E-3,3.15999985,,,,,-20.65999806E-3,-200.00000298E-3,
,,,-20.63999884E-3,3.15999985,,,,,-20.63999884E-3,-200.00000298E-3,
,,,-20.61999775E-3,3.15999985,,,,,-20.61999775E-3,-216.00000560E-3,
,,,-20.59999853E-3,3.15999985,,,,,-20.59999853E-3,-192.00000167E-3,
,,,-20.57999931E-3,3.15999985,,,,,-20.57999931E-3,-176.00001395E-3,
,,,-20.55999823E-3,3.11999989,,,,,-20.55999823E-3,-168.00001264E-3,
,,,-20.53999901E-3,3.11999989,,,,,-20.53999901E-3,-184.00001526E-3,
,,,-20.51999792E-3,3.07999992,,,,,-20.51999792E-3,-136.0000074E-3,
,,,-20.49999870E-3,3.07999992,,,,,-20.49999870E-3,-152.00001001E-3,
,,,-20.47999948E-3,3.07999992,,,,,-20.47999948E-3,-136.0000074E-3,
,,,-20.45999840E-3,3.03999996,,,,,-20.45999840E-3,-136.0000074E-3,
,,,-20.43999918E-3,3.00000000,,,,,-20.43999918E-3,-128.0000061E-3,
,,,-20.41999809E-3,3.00000000,,,,,-20.41999809E-3,-144.0000087E-3,
,,,-20.39999887E-3,3.00000000,,,,,-20.39999887E-3,-104.0000021E-3,
,,,-20.37999779E-3,3.00000000,,,,,-20.37999779E-3,-112.0000035E-3,
,,,-20.35999857E-3,2.96000004,,,,,-20.35999857E-3,-112.0000035E-3,
,,,-20.33999935E-3,2.91999984,,,,,-20.33999935E-3,-96.000000834E-3,
,,,-20.31999826E-3,2.91999984,,,,,-20.31999826E-3,-80.000005662E-3,
,,,-20.29999904E-3,2.91999984,,,,,-20.29999904E-3,-88.000006974E-3,
,,,-20.27999796E-3,2.87999988,,,,,-20.27999796E-3,-80.000005662E-3,
,,,-20.25999874E-3,2.87999988,,,,,-20.25999874E-3,-56.000001729E-3,
,,,-20.23999952E-3,2.83999991,,,,,-20.23999952E-3,-48.00000042E-3,
,,,-20.21999843E-3,2.83999991,,,,,-20.21999843E-3,-64.000003040E-3,
,,,-20.19999921E-3,2.83999991,,,,,-20.19999921E-3,-56.000001729E-3,
,,,-20.17999813E-3,2.79999995,,,,,-20.17999813E-3,-48.00000042E-3,
,,,-20.15999891E-3,2.75999999,,,,,-20.15999891E-3,-40.00000283E-3,
,,,-20.13999783E-3,2.79999995,,,,,-20.13999783E-3,-32.00000152E-3,
,,,-20.11999860E-3,2.75999999,,,,,-20.11999860E-3,-16.0000008E-3,
,,,-20.09999938E-3,2.72000003,,,,,-20.09999938E-3,-16.0000008E-3,
,,,-20.0799983E-3,2.72000003,,,,,-20.0799983E-3,-8.000000380E-3,
,,,-20.0599991E-3,2.6799998,,,,,-20.0599991E-3,0.0,
,,,-20.0399980E-3,2.6399999,,,,,-20.0399980E-3,0.0,
,,,-20.0199988E-3,2.6399999,,,,,-20.0199988E-3,24.00000021E-3,
,,,-19.9999996E-3,2.6399999,,,,,-19.9999996E-3,8.000000380E-3,
,,,-19.9799985E-3,2.5999999,,,,,-19.9799985E-3,48.00000042E-3,
,,,-19.9599992E-3,2.5599999,,,,,-19.9599992E-3,48.00000042E-3,
,,,-19.9399982E-3,2.5599999,,,,,-19.9399982E-3,48.00000042E-3,
,,,-19.9199989E-3,2.5200000,,,,,-19.9199989E-3,56.000001729E-3,
,,,-19.8999979E-3,2.5200000,,,,,-19.8999979E-3,64.000003040E-3,
,,,-19.8799986E-3,2.5200000,,,,,-19.8799986E-3,80.000005662E-3,
,,,-19.8599994E-3,2.4800000,,,,,-19.8599994E-3,88.000006974E-3,
,,,-19.8399983E-3,2.4800000,,,,,-19.8399983E-3,80.000005662E-3,
,,,-19.8199991E-3,2.4400001,,,,,-19.8199991E-3,88.000006974E-3,
,,,-19.7999980E-3,2.4400001,,,,,-19.7999980E-3,112.0000035E-3,
,,,-19.7799988E-3,2.4400001,,,,,-19.7799988E-3,112.0000035E-3,
,,,-19.7599977E-3,2.3999999,,,,,-19.7599977E-3,112.0000035E-3,
,,,-19.7399985E-3,2.3999999,,,,,-19.7399985E-3,120.0000048E-3,
,,,-19.7199993E-3,2.3599999,,,,,-19.7199993E-3,136.0000074E-3,
,,,-19.6999982E-3,2.3199999,,,,,-19.6999982E-3,136.0000074E-3,
,,,-19.6799990E-3,2.3199999,,,,,-19.6799990E-3,144.0000087E-3,
,,,-19.6599979E-3,2.2800000,,,,,-19.6599979E-3,160.00001132E-3,
,,,-19.6399987E-3,2.2800000,,,,,-19.6399987E-3,152.00001001E-3,
,,,-19.6199995E-3,2.2400000,,,,,-19.6199995E-3,152.00001001E-3,
,,,-19.5999984E-3,2.2000000,,,,,-19.5999984E-3,168.00001264E-3,
,,,-19.5799991E-3,2.2000000,,,,,-19.5799991E-3,192.00000167E-3,
,,,-19.5599981E-3,2.2000000,,,,,-19.5599981E-3,176.00001395E-3,
,,,-19.5399988E-3,2.1599998,,,,,-19.5399988E-3,200.00000298E-3,
,,,-19.5199978E-3,2.1199999,,,,,-19.5199978E-3,224.00000691E-3,
,,,-19.4999985E-3,2.1199999,,,,,-19.4999985E-3,208.00000429E-3,
,,,-19.4799993E-3,2.0799999,,,,,-19.4799993E-3,224.00000691E-3,
,,,-19.4599982E-3,2.0799999,,,,,-19.4599982E-3,224.00000691E-3,
,,,-19.4399990E-3,2.0400000,,,,,-19.4399990E-3,232.00000823E-3,
,,,-19.4199979E-3,2.0000000,,,,,-19.4199979E-3,240.00000954E-3,
,,,-19.3999987E-3,2.0000000,,,,,-19.3999987E-3,256.00001216E-3,
,,,-19.3799995E-3,1.9599999,,,,,-19.3799995E-3,256.00001216E-3,
,,,-19.3599984E-3,1.9599999,,,,,-19.3599984E-3,263.99999857E-3,
,,,-19.3399992E-3,1.9200000,,,,,-19.3399992E-3,280.00000119E-3,
,,,-19.3199981E-3,1.9200000,,,,,-19.3199981E-3,288.00001740E-3,
,,,-19.2999989E-3,1.8800000,,,,,-19.2999989E-3,288.00001740E-3,
,,,-19.2799978E-3,1.8399999,,,,,-19.2799978E-3,296.00000381E-3,
