mat2/30000.csv

Record Length,2000,Points,-80.000005662E-3,4.00000019E-3,,Record Length,2000,Points,-80.000005662E-3,-540.000021458E-3,
Sample Interval,79.999997979E-6,s,-79.920008779E-3,24.00000021E-3,,Sample Interval,79.999997979E-6,s,-79.920008779E-3,-500.000059605E-3,
Trigger Point,1.0000001E3,Samples,-79.840004444E-3,32.00000152E-3,,Trigger Point,1.0000001E3,Samples,-79.840004444E-3,-500.000059605E-3,
,,,-79.760007560E-3,48.00000042E-3,,,,,-79.760007560E-3,-460.000038147E-3,
,,,-79.680003226E-3,52.00000107E-3,,,,,-79.680003226E-3,-440.000027418E-3,
,,,-79.600006342E-3,52.00000107E-3,,,,,-79.600006342E-3,-420.000016689E-3,
Source,CH1,,-79.520002007E-3,48.00000042E-3,,Source,CH2,,-79.520002007E-3,-420.000016689E-3,
Vertical Units,V,,-79.440005124E-3,60.000002384E-3,,Vertical Units,V,,-79.440005124E-3,-380.00002503E-3,
Vertical Scale,100.0000047E-3,,-79.360008240E-3,80.000005662E-3,,Vertical Scale,500.000035390E-3,,-79.360008240E-3,-360.00001431E-3,
Vertical Offset,0,,-79.280003905E-3,92.000007629E-3,,Vertical Offset,0,,-79.280003905E-3,-340.00003338E-3,
Horizontal Units,s,,-79.200007021E-3,80.000005662E-3,,Horizontal Units,s,,-79.200007021E-3,-320.00002265E-3,
Horizontal Scale,15.9999996E-3,,-79.120002687E-3,96.000000834E-3,,Horizontal Scale,15.9999996E-3,,-79.120002687E-3,-300.00001192E-3,
Pt Fmt,Y,,-79.040005803E-3,84.000006318E-3,,Pt Fmt,Y,,-79.040005803E-3,-280.00003099E-3,
Yzero,0.0,,-78.960008919E-3,108.0000028E-3,,Yzero,0.0,,-78.960008919E-3,-260.00002027E-3,
,,,-78.880004585E-3,128.0000061E-3,,,,,-78.880004585E-3,-220.00001371E-3,
,,,-78.800007701E-3,108.0000028E-3,,,,,-78.800007701E-3,-200.00001788E-3,
Note,TBS1052C - 11:38:54   14-Jan-24,,-78.720003366E-3,112.0000035E-3,,Note,TBS1052C - 11:38:54   14-Jan-24,,-78.720003366E-3,-200.00001788E-3,
,,,-78.640006483E-3,131.9999993E-3,,,,,-78.640006483E-3,-160.00001132E-3,
,,,-78.560002148E-3,148.0000019E-3,,,,,-78.560002148E-3,-160.00001132E-3,
,,,-78.480005264E-3,131.9999993E-3,,,,,-78.480005264E-3,-120.0000048E-3,
,,,-78.400008380E-3,140.0000006E-3,,,,,-78.400008380E-3,-100.0000089E-3,
,,,-78.320004046E-3,144.0000087E-3,,,,,-78.320004046E-3,-80.000005662E-3,
,,,-78.240007162E-3,148.0000019E-3,,,,,-78.240007162E-3,-60.000002384E-3,
,,,-78.160002828E-3,136.0000074E-3,,,,,-78.160002828E-3,-20.0000014E-3,
,,,-78.080005944E-3,152.00001001E-3,,,,,-78.080005944E-3,0.0,
,,,-78.000009060E-3,172.00000584E-3,,,,,-78.000009060E-3,40.00000283E-3,
,,,-77.920004725E-3,172.00000584E-3,,,,,-77.920004725E-3,60.000002384E-3,
,,,-77.840007842E-3,180.00000715E-3,,,,,-77.840007842E-3,80.000005662E-3,
,,,-77.760003507E-3,188.00000846E-3,,,,,-77.760003507E-3,100.0000089E-3,
,,,-77.680006623E-3,188.00000846E-3,,,,,-77.680006623E-3,120.0000048E-3,
,,,-77.600002289E-3,184.00001526E-3,,,,,-77.600002289E-3,140.0000155E-3,
,,,-77.520005405E-3,184.00001526E-3,,,,,-77.520005405E-3,160.00001132E-3,
,,,-77.440008521E-3,188.00000846E-3,,,,,-77.440008521E-3,180.00000715E-3,
,,,-77.360004187E-3,232.00000823E-3,,,,,-77.360004187E-3,220.00001371E-3,
,,,-77.280007303E-3,200.00000298E-3,,,,,-77.280007303E-3,240.00000954E-3,
,,,-77.200002968E-3,212.00001240E-3,,,,,-77.200002968E-3,260.00002027E-3,
,,,-77.120006084E-3,188.00000846E-3,,,,,-77.120006084E-3,280.00003099E-3,
,,,-77.040009201E-3,216.00000560E-3,,,,,-77.040009201E-3,300.00001192E-3,
,,,-76.960004866E-3,232.00000823E-3,,,,,-76.960004866E-3,300.00001192E-3,
,,,-76.880007982E-3,236.00001633E-3,,,,,-76.880007982E-3,320.00002265E-3,
,,,-76.800003648E-3,232.00000823E-3,,,,,-76.800003648E-3,360.00001431E-3,
,,,-76.720006764E-3,244.00001764E-3,,,,,-76.720006764E-3,400.00003576E-3,
,,,-76.640002429E-3,240.00000954E-3,,,,,-76.640002429E-3,400.00003576E-3,
,,,-76.560005546E-3,228.00001502E-3,,,,,-76.560005546E-3,460.000038147E-3,
,,,-76.480008662E-3,232.00000823E-3,,,,,-76.480008662E-3,460.000038147E-3,
,,,-76.400004327E-3,248.00001085E-3,,,,,-76.400004327E-3,480.000019073E-3,
,,,-76.320007443E-3,240.00000954E-3,,,,,-76.320007443E-3,500.000059605E-3,
,,,-76.240003109E-3,252.00000405E-3,,,,,-76.240003109E-3,520.000040531E-3,
,,,-76.160006225E-3,260.00002027E-3,,,,,-76.160006225E-3,540.000021458E-3,
,,,-76.080009341E-3,240.00000954E-3,,,,,-76.080009341E-3,560.000061989E-3,
,,,-76.000005007E-3,260.00002027E-3,,,,,-76.000005007E-3,580.000042915E-3,
,,,-75.920008123E-3,248.00001085E-3,,,,,-75.920008123E-3,600.000023842E-3,
,,,-75.840003788E-3,256.00001216E-3,,,,,-75.840003788E-3,620.000064373E-3,
,,,-75.760006905E-3,272.00001478E-3,,,,,-75.760006905E-3,640.000045300E-3,
,,,-75.680002570E-3,252.00000405E-3,,,,,-75.680002570E-3,660.000026226E-3,
,,,-75.600005686E-3,263.99999857E-3,,,,,-75.600005686E-3,680.000066757E-3,
,,,-75.520008802E-3,236.00001633E-3,,,,,-75.520008802E-3,700.000047684E-3,
,,,-75.440004468E-3,260.00002027E-3,,,,,-75.440004468E-3,700.000047684E-3,
,,,-75.360007584E-3,268.00000668E-3,,,,,-75.360007584E-3,740.000069141E-3,
,,,-75.280003250E-3,260.00002027E-3,,,,,-75.280003250E-3,740.000069141E-3,
,,,-75.200006366E-3,263.99999857E-3,,,,,-75.200006366E-3,780.000030994E-3,
,,,-75.120009482E-3,252.00000405E-3,,,,,-75.120009482E-3,780.000030994E-3,
,,,-75.040005147E-3,260.00002027E-3,,,,,-75.040005147E-3,800.000071526E-3,
,,,-74.960008264E-3,256.00001216E-3,,,,,-74.960008264E-3,820.000052452E-3,
,,,-74.880003929E-3,280.00000119E-3,,,,,-74.880003929E-3,840.000033379E-3,
,,,-74.800007045E-3,268.00000668E-3,,,,,-74.800007045E-3,860.000073910E-3,
,,,-74.720002711E-3,263.99999857E-3,,,,,-74.720002711E-3,860.000073910E-3,
,,,-74.640005827E-3,276.00002289E-3,,,,,-74.640005827E-3,880.000054836E-3,
,,,-74.560008943E-3,252.00000405E-3,,,,,-74.560008943E-3,880.000054836E-3,
,,,-74.480004609E-3,260.00002027E-3,,,,,-74.480004609E-3,900.000035763E-3,
,,,-74.400007725E-3,240.00000954E-3,,,,,-74.400007725E-3,920.000076294E-3,
,,,-74.320003390E-3,284.00000930E-3,,,,,-74.320003390E-3,940.000057220E-3,
,,,-74.240006506E-3,260.00002027E-3,,,,,-74.240006506E-3,940.000057220E-3,
,,,-74.160002172E-3,256.00001216E-3,,,,,-74.160002172E-3,940.000057220E-3,
,,,-74.080005288E-3,263.99999857E-3,,,,,-74.080005288E-3,960.000038147E-3,
,,,-74.000008404E-3,252.00000405E-3,,,,,-74.000008404E-3,960.000038147E-3,
,,,-73.920004070E-3,248.00001085E-3,,,,,-73.920004070E-3,960.000038147E-3,
,,,-73.840007186E-3,248.00001085E-3,,,,,-73.840007186E-3,960.000038147E-3,
,,,-73.760002851E-3,244.00001764E-3,,,,,-73.760002851E-3,980.000078678E-3,
,,,-73.680005968E-3,236.00001633E-3,,,,,-73.680005968E-3,980.000078678E-3,
,,,-73.600009084E-3,240.00000954E-3,,,,,-73.600009084E-3,980.000078678E-3,
,,,-73.520004749E-3,240.00000954E-3,,,,,-73.520004749E-3,1.0000001,
,,,-73.440007865E-3,220.00001371E-3,,,,,-73.440007865E-3,1.0000001,
,,,-73.360003531E-3,232.00000823E-3,,,,,-73.360003531E-3,980.000078678E-3,
,,,-73.280006647E-3,228.00001502E-3,,,,,-73.280006647E-3,1.0000001,
,,,-73.200002313E-3,220.00001371E-3,,,,,-73.200002313E-3,1.0000001,
,,,-73.120005429E-3,208.00000429E-3,,,,,-73.120005429E-3,980.000078678E-3,
,,,-73.040008545E-3,204.00001109E-3,,,,,-73.040008545E-3,980.000078678E-3,
,,,-72.960004210E-3,208.00000429E-3,,,,,-72.960004210E-3,980.000078678E-3,
,,,-72.880007327E-3,196.00000978E-3,,,,,-72.880007327E-3,980.000078678E-3,
,,,-72.800002992E-3,192.00000167E-3,,,,,-72.800002992E-3,980.000078678E-3,
,,,-72.720006108E-3,196.00000978E-3,,,,,-72.720006108E-3,960.000038147E-3,
,,,-72.640009224E-3,180.00000715E-3,,,,,-72.640009224E-3,940.000057220E-3,
,,,-72.560004890E-3,180.00000715E-3,,,,,-72.560004890E-3,940.000057220E-3,
,,,-72.480008006E-3,168.00001264E-3,,,,,-72.480008006E-3,960.000038147E-3,
,,,-72.400003672E-3,184.00001526E-3,,,,,-72.400003672E-3,960.000038147E-3,
,,,-72.320006788E-3,156.00000322E-3,,,,,-72.320006788E-3,940.000057220E-3,
,,,-72.240002453E-3,160.00001132E-3,,,,,-72.240002453E-3,920.000076294E-3,
,,,-72.160005569E-3,148.0000019E-3,,,,,-72.160005569E-3,900.000035763E-3,
,,,-72.080008686E-3,144.0000087E-3,,,,,-72.080008686E-3,900.000035763E-3,
,,,-72.000004351E-3,140.0000006E-3,,,,,-72.000004351E-3,880.000054836E-3,
,,,-71.920007467E-3,148.0000019E-3,,,,,-71.920007467E-3,880.000054836E-3,
,,,-71.840003133E-3,136.0000074E-3,,,,,-71.840003133E-3,880.000054836E-3,
,,,-71.760006249E-3,140.0000006E-3,,,,,-71.760006249E-3,860.000073910E-3,
,,,-71.680009365E-3,120.0000048E-3,,,,,-71.680009365E-3,840.000033379E-3,
,,,-71.600005031E-3,124.0000054E-3,,,,,-71.600005031E-3,840.000033379E-3,
,,,-71.520008147E-3,116.0000041E-3,,,,,-71.520008147E-3,840.000033379E-3,
,,,-71.440003812E-3,96.000000834E-3,,,,,-71.440003812E-3,820.000052452E-3,
,,,-71.360006928E-3,120.0000048E-3,,,,,-71.360006928E-3,800.000071526E-3,
,,,-71.280002594E-3,96.000000834E-3,,,,,-71.280002594E-3,800.000071526E-3,
,,,-71.200005710E-3,72.000004351E-3,,,,,-71.200005710E-3,780.000030994E-3,
,,,-71.120008826E-3,80.000005662E-3,,,,,-71.120008826E-3,740.000069141E-3,
,,,-71.040004492E-3,76.000005007E-3,,,,,-71.040004492E-3,740.000069141E-3,
,,,-70.960007608E-3,68.000003695E-3,,,,,-70.960007608E-3,720.000028610E-3,
,,,-70.880003273E-3,64.000003040E-3,,,,,-70.880003273E-3,720.000028610E-3,
,,,-70.800006390E-3,52.00000107E-3,,,,,-70.800006390E-3,700.000047684E-3,
,,,-70.720009506E-3,52.00000107E-3,,,,,-70.720009506E-3,680.000066757E-3,
,,,-70.640005171E-3,44.00000349E-3,,,,,-70.640005171E-3,680.000066757E-3,
,,,-70.560008287E-3,20.0000014E-3,,,,,-70.560008287E-3,680.000066757E-3,
,,,-70.480003953E-3,28.00000086E-3,,,,,-70.480003953E-3,640.000045300E-3,
,,,-70.400007069E-3,4.00000019E-3,,,,,-70.400007069E-3,620.000064373E-3,
,,,-70.320002735E-3,20.0000014E-3,,,,,-70.320002735E-3,600.000023842E-3,
,,,-70.240005851E-3,0.0,,,,,-70.240005851E-3,580.000042915E-3,
,,,-70.160008967E-3,-12.0000001E-3,,,,,-70.160008967E-3,560.000061989E-3,
,,,-70.080004632E-3,0.0,,,,,-70.080004632E-3,540.000021458E-3,
,,,-70.000007749E-3,-8.000000380E-3,,,,,-70.000007749E-3,540.000021458E-3,
,,,-69.920003414E-3,-20.0000014E-3,,,,,-69.920003414E-3,500.000059605E-3,
,,,-69.840006530E-3,-16.0000008E-3,,,,,-69.840006530E-3,480.000019073E-3,
,,,-69.760009646E-3,-32.00000152E-3,,,,,-69.760009646E-3,460.000038147E-3,
,,,-69.680005312E-3,-40.00000283E-3,,,,,-69.680005312E-3,460.000038147E-3,
,,,-69.600008428E-3,-20.0000014E-3,,,,,-69.600008428E-3,400.00003576E-3,
,,,-69.520004094E-3,-48.00000042E-3,,,,,-69.520004094E-3,400.00003576E-3,
,,,-69.440007210E-3,-56.000001729E-3,,,,,-69.440007210E-3,380.00002503E-3,
,,,-69.360002875E-3,-64.000003040E-3,,,,,-69.360002875E-3,360.00001431E-3,
,,,-69.280005991E-3,-68.000003695E-3,,,,,-69.280005991E-3,340.00003338E-3,
,,,-69.200009108E-3,-68.000003695E-3,,,,,-69.200009108E-3,320.00002265E-3,
,,,-69.120004773E-3,-84.000006318E-3,,,,,-69.120004773E-3,300.00001192E-3,
,,,-69.040007889E-3,-72.000004351E-3,,,,,-69.040007889E-3,260.00002027E-3,
,,,-68.960003555E-3,-84.000006318E-3,,,,,-68.960003555E-3,260.00002027E-3,
,,,-68.880006671E-3,-92.000007629E-3,,,,,-68.880006671E-3,220.00001371E-3,
,,,-68.800002337E-3,-100.0000015E-3,,,,,-68.800002337E-3,200.00001788E-3,
,,,-68.720005453E-3,-116.0000041E-3,,,,,-68.720005453E-3,180.00000715E-3,
,,,-68.640008569E-3,-120.0000048E-3,,,,,-68.640008569E-3,160.00001132E-3,
,,,-68.560004234E-3,-120.0000048E-3,,,,,-68.560004234E-3,140.0000155E-3,
,,,-68.480007350E-3,-192.00000167E-3,,,,,-68.480007350E-3,140.0000155E-3,
,,,-68.400003016E-3,-136.0000074E-3,,,,,-68.400003016E-3,100.0000089E-3,
,,,-68.320006132E-3,-140.0000006E-3,,,,,-68.320006132E-3,60.000002384E-3,
,,,-68.240009248E-3,-144.0000087E-3,,,,,-68.240009248E-3,40.00000283E-3,
,,,-68.160004914E-3,-131.9999993E-3,,,,,-68.160004914E-3,20.0000014E-3,
,,,-68.080008030E-3,-176.00001395E-3,,,,,-68.080008030E-3,0.0,
,,,-68.000003695E-3,-152.00001001E-3,,,,,-68.000003695E-3,-20.0000014E-3,
,,,-67.920006812E-3,-176.00001395E-3,,,,,-67.920006812E-3,-60.000002384E-3,
,,,-67.840002477E-3,-164.00000453E-3,,,,,-67.840002477E-3,-80.000005662E-3,
,,,-67.760005593E-3,-188.00000846E-3,,,,,-67.760005593E-3,-80.000005662E-3,
,,,-67.680008709E-3,-192.00000167E-3,,,,,-67.680008709E-3,-100.0000089E-3,
,,,-67.600004375E-3,-184.00001526E-3,,,,,-67.600004375E-3,-140.0000155E-3,
,,,-67.520007491E-3,-172.00000584E-3,,,,,-67.520007491E-3,-160.00001132E-3,
,,,-67.440003157E-3,-216.00000560E-3,,,,,-67.440003157E-3,-180.00000715E-3,
,,,-67.360006273E-3,-216.00000560E-3,,,,,-67.360006273E-3,-200.00001788E-3,
,,,-67.280009389E-3,-204.00001109E-3,,,,,-67.280009389E-3,-220.00001371E-3,
,,,-67.200005054E-3,-196.00000978E-3,,,,,-67.200005054E-3,-240.00000954E-3,
,,,-67.120008171E-3,-220.00001371E-3,,,,,-67.120008171E-3,-260.00002027E-3,
,,,-67.040003836E-3,-208.00000429E-3,,,,,-67.040003836E-3,-300.00001192E-3,
,,,-66.960006952E-3,-224.00000691E-3,,,,,-66.960006952E-3,-320.00002265E-3,
,,,-66.880002618E-3,-232.00000823E-3,,,,,-66.880002618E-3,-340.00003338E-3,
,,,-66.800005734E-3,-224.00000691E-3,,,,,-66.800005734E-3,-360.00001431E-3,
,,,-66.720008850E-3,-232.00000823E-3,,,,,-66.720008850E-3,-380.00002503E-3,
,,,-66.640004516E-3,-224.00000691E-3,,,,,-66.640004516E-3,-420.000016689E-3,
,,,-66.560007632E-3,-232.00000823E-3,,,,,-66.560007632E-3,-440.000027418E-3,
,,,-66.480003297E-3,-224.00000691E-3,,,,,-66.480003297E-3,-460.000038147E-3,
,,,-66.400006413E-3,-244.00001764E-3,,,,,-66.400006413E-3,-480.000019073E-3,
,,,-66.320009530E-3,-224.00000691E-3,,,,,-66.320009530E-3,-480.000019073E-3,
,,,-66.240005195E-3,-240.00000954E-3,,,,,-66.240005195E-3,-520.000040531E-3,
,,,-66.160008311E-3,-248.00001085E-3,,,,,-66.160008311E-3,-540.000021458E-3,
,,,-66.080003977E-3,-248.00001085E-3,,,,,-66.080003977E-3,-580.000042915E-3,
,,,-66.000007093E-3,-232.00000823E-3,,,,,-66.000007093E-3,-580.000042915E-3,
,,,-65.920002759E-3,-240.00000954E-3,,,,,-65.920002759E-3,-620.000064373E-3,
,,,-65.840005875E-3,-240.00000954E-3,,,,,-65.840005875E-3,-620.000064373E-3,
,,,-65.760008991E-3,-260.00002027E-3,,,,,-65.760008991E-3,-640.000045300E-3,
,,,-65.680004656E-3,-244.00001764E-3,,,,,-65.680004656E-3,-640.000045300E-3,
,,,-65.600007772E-3,-252.00000405E-3,,,,,-65.600007772E-3,-700.000047684E-3,
,,,-65.520003438E-3,-256.00001216E-3,,,,,-65.520003438E-3,-700.000047684E-3,
,,,-65.440006554E-3,-272.00001478E-3,,,,,-65.440006554E-3,-740.000069141E-3,
,,,-65.360009670E-3,-252.00000405E-3,,,,,-65.360009670E-3,-720.000028610E-3,
,,,-65.280005336E-3,-256.00001216E-3,,,,,-65.280005336E-3,-760.000050068E-3,
,,,-65.200008452E-3,-240.00000954E-3,,,,,-65.200008452E-3,-800.000071526E-3,
,,,-65.120004117E-3,-252.00000405E-3,,,,,-65.120004117E-3,-780.000030994E-3,
,,,-65.040007234E-3,-252.00000405E-3,,,,,-65.040007234E-3,-820.000052452E-3,
,,,-64.960002899E-3,-260.00002027E-3,,,,,-64.960002899E-3,-840.000033379E-3,
,,,-64.880006015E-3,-263.99999857E-3,,,,,-64.880006015E-3,-840.000033379E-3,
,,,-64.800009131E-3,-256.00001216E-3,,,,,-64.800009131E-3,-860.000073910E-3,
,,,-64.720004797E-3,-284.00000930E-3,,,,,-64.720004797E-3,-860.000073910E-3,
,,,-64.640007913E-3,-268.00000668E-3,,,,,-64.640007913E-3,-880.000054836E-3,
,,,-64.560003579E-3,-256.00001216E-3,,,,,-64.560003579E-3,-880.000054836E-3,
,,,-64.480006695E-3,-268.00000668E-3,,,,,-64.480006695E-3,-900.000035763E-3,
,,,-64.400002360E-3,-248.00001085E-3,,,,,-64.400002360E-3,-920.000076294E-3,
,,,-64.320005476E-3,-244.00001764E-3,,,,,-64.320005476E-3,-920.000076294E-3,
,,,-64.240008593E-3,-252.00000405E-3,,,,,-64.240008593E-3,-940.000057220E-3,
,,,-64.160004258E-3,-240.00000954E-3,,,,,-64.160004258E-3,-960.000038147E-3,
,,,-64.080007374E-3,-240.00000954E-3,,,,,-64.080007374E-3,-960.000038147E-3,
,,,-64.000003040E-3,-236.00001633E-3,,,,,-64.000003040E-3,-960.000038147E-3,
,,,-63.920006156E-3,-248.00001085E-3,,,,,-63.920006156E-3,-960.000038147E-3,
,,,-63.840009272E-3,-244.00001764E-3,,,,,-63.840009272E-3,-980.000078678E-3,
,,,-63.760004938E-3,-248.00001085E-3,,,,,-63.760004938E-3,-980.000078678E-3,
,,,-63.680008054E-3,-232.00000823E-3,,,,,-63.680008054E-3,-980.000078678E-3,
,,,-63.600003719E-3,-224.00000691E-3,,,,,-63.600003719E-3,-980.000078678E-3,
,,,-63.520006835E-3,-220.00001371E-3,,,,,-63.520006835E-3,-980.000078678E-3,
,,,-63.440002501E-3,-224.00000691E-3,,,,,-63.440002501E-3,-1.0000001,
,,,-63.360005617E-3,-220.00001371E-3,,,,,-63.360005617E-3,-1.0000001,
,,,-63.280008733E-3,-216.00000560E-3,,,,,-63.280008733E-3,-980.000078678E-3,
,,,-63.200004399E-3,-212.00001240E-3,,,,,-63.200004399E-3,-1.0000001,
,,,-63.120007515E-3,-208.00000429E-3,,,,,-63.120007515E-3,-980.000078678E-3,
,,,-63.040003181E-3,-192.00000167E-3,,,,,-63.040003181E-3,-960.000038147E-3,
,,,-62.960006297E-3,-196.00000978E-3,,,,,-62.960006297E-3,-1.0000001,
,,,-62.880009413E-3,-188.00000846E-3,,,,,-62.880009413E-3,-960.000038147E-3,
,,,-62.800005078E-3,-188.00000846E-3,,,,,-62.800005078E-3,-960.000038147E-3,
,,,-62.720008194E-3,-180.00000715E-3,,,,,-62.720008194E-3,-960.000038147E-3,
,,,-62.640003860E-3,-188.00000846E-3,,,,,-62.640003860E-3,-960.000038147E-3,
,,,-62.560006976E-3,-172.00000584E-3,,,,,-62.560006976E-3,-960.000038147E-3,
,,,-62.480006367E-3,-168.00001264E-3,,,,,-62.480006367E-3,-960.000038147E-3,
,,,-62.400005758E-3,-160.00001132E-3,,,,,-62.400005758E-3,-960.000038147E-3,
,,,-62.320005149E-3,-168.00001264E-3,,,,,-62.320005149E-3,-940.000057220E-3,
,,,-62.240004539E-3,-156.00000322E-3,,,,,-62.240004539E-3,-920.000076294E-3,
,,,-62.160007656E-3,-148.0000019E-3,,,,,-62.160007656E-3,-920.000076294E-3,
,,,-62.080007046E-3,-131.9999993E-3,,,,,-62.080007046E-3,-900.000035763E-3,
,,,-62.000006437E-3,-144.0000087E-3,,,,,-62.000006437E-3,-900.000035763E-3,
,,,-61.920005828E-3,-136.0000074E-3,,,,,-61.920005828E-3,-880.000054836E-3,
,,,-61.840005219E-3,-128.0000061E-3,,,,,-61.840005219E-3,-880.000054836E-3,
,,,-61.760004610E-3,-116.0000041E-3,,,,,-61.760004610E-3,-880.000054836E-3,
,,,-61.680007726E-3,-108.0000028E-3,,,,,-61.680007726E-3,-860.000073910E-3,
,,,-61.600007117E-3,-108.0000028E-3,,,,,-61.600007117E-3,-840.000033379E-3,
,,,-61.520006508E-3,-108.0000028E-3,,,,,-61.520006508E-3,-820.000052452E-3,
,,,-61.440005898E-3,-108.0000028E-3,,,,,-61.440005898E-3,-820.000052452E-3,
,,,-61.360005289E-3,-68.000003695E-3,,,,,-61.360005289E-3,-800.000071526E-3,
,,,-61.280004680E-3,-84.000006318E-3,,,,,-61.280004680E-3,-800.000071526E-3,
,,,-61.200007796E-3,-80.000005662E-3,,,,,-61.200007796E-3,-760.000050068E-3,
,,,-61.120007187E-3,-72.000004351E-3,,,,,-61.120007187E-3,-760.000050068E-3,
,,,-61.040006578E-3,-84.000006318E-3,,,,,-61.040006578E-3,-780.000030994E-3,
,,,-60.960005969E-3,-68.000003695E-3,,,,,-60.960005969E-3,-760.000050068E-3,
,,,-60.880005360E-3,-64.000003040E-3,,,,,-60.880005360E-3,-720.000028610E-3,
,,,-60.800004750E-3,-48.00000042E-3,,,,,-60.800004750E-3,-700.000047684E-3,
,,,-60.720007867E-3,-52.00000107E-3,,,,,-60.720007867E-3,-680.000066757E-3,
,,,-60.640007257E-3,-36.00000218E-3,,,,,-60.640007257E-3,-680.000066757E-3,
,,,-60.560006648E-3,-40.00000283E-3,,,,,-60.560006648E-3,-660.000026226E-3,
,,,-60.480006039E-3,-28.00000086E-3,,,,,-60.480006039E-3,-640.000045300E-3,
,,,-60.400005430E-3,-16.0000008E-3,,,,,-60.400005430E-3,-640.000045300E-3,
,,,-60.320004821E-3,-20.0000014E-3,,,,,-60.320004821E-3,-620.000064373E-3,
,,,-60.240007937E-3,-8.000000380E-3,,,,,-60.240007937E-3,-580.000042915E-3,
,,,-60.160007328E-3,4.00000019E-3,,,,,-60.160007328E-3,-560.000061989E-3,
,,,-60.080006719E-3,16.0000008E-3,,,,,-60.080006719E-3,-560.000061989E-3,
,,,-60.000006109E-3,8.000000380E-3,,,,,-60.000006109E-3,-520.000040531E-3,
,,,-59.920005500E-3,8.000000380E-3,,,,,-59.920005500E-3,-500.000059605E-3,
,,,-59.840004891E-3,12.0000001E-3,,,,,-59.840004891E-3,-460.000038147E-3,
,,,-59.760008007E-3,40.00000283E-3,,,,,-59.760008007E-3,-460.000038147E-3,
,,,-59.680007398E-3,60.000002384E-3,,,,,-59.680007398E-3,-460.000038147E-3,
,,,-59.600006789E-3,56.000001729E-3,,,,,-59.600006789E-3,-420.000016689E-3,
,,,-59.520006180E-3,52.00000107E-3,,,,,-59.520006180E-3,-420.000016689E-3,
,,,-59.440005571E-3,64.000003040E-3,,,,,-59.440005571E-3,-380.00002503E-3,
,,,-59.360004961E-3,80.000005662E-3,,,,,-59.360004961E-3,-360.00001431E-3,
,,,-59.280004352E-3,76.000005007E-3,,,,,-59.280004352E-3,-340.00003338E-3,
