magnetization/hysteresis/mat2/500.csv

Record Length,2000,Points,-80.000005662E-3,0.0,,Record Length,2000,Points,-80.000005662E-3,-6.40000010,
Sample Interval,79.999997979E-6,s,-79.920008779E-3,160.00001132E-3,,Sample Interval,79.999997979E-6,s,-79.920008779E-3,-6.20000029,
Trigger Point,1.0000001E3,Samples,-79.840004444E-3,320.00002265E-3,,Trigger Point,1.0000001E3,Samples,-79.840004444E-3,-6.00000000,
,,,-79.760007560E-3,480.000019073E-3,,,,,-79.760007560E-3,-5.80000019,
,,,-79.680003226E-3,640.000045300E-3,,,,,-79.680003226E-3,-5.59999990,
,,,-79.600006342E-3,800.000071526E-3,,,,,-79.600006342E-3,-5.40000010,
Source,CH1,,-79.520002007E-3,960.000038147E-3,,Source,CH2,,-79.520002007E-3,-5.20000029,
Vertical Units,V,,-79.440005124E-3,1.0400001,,Vertical Units,V,,-79.440005124E-3,-5.00000000,
Vertical Scale,2.0000001,,-79.360008240E-3,1.2000000,,Vertical Scale,5.00000007,,-79.360008240E-3,-4.59999990,
Vertical Offset,0,,-79.280003905E-3,1.2800001,,Vertical Offset,0,,-79.280003905E-3,-4.20000029,
Horizontal Units,s,,-79.200007021E-3,1.4400001,,Horizontal Units,s,,-79.200007021E-3,-4.00000000,
Horizontal Scale,15.9999996E-3,,-79.120002687E-3,1.5200001,,Horizontal Scale,15.9999996E-3,,-79.120002687E-3,-3.60000014,
Pt Fmt,Y,,-79.040005803E-3,1.6800001,,Pt Fmt,Y,,-79.040005803E-3,-3.40000010,
Yzero,0.0,,-78.960008919E-3,1.7600001,,Yzero,0.0,,-78.960008919E-3,-3.00000000,
,,,-78.880004585E-3,1.8400002,,,,,-78.880004585E-3,-2.6000001,
,,,-78.800007701E-3,1.9200001,,,,,-78.800007701E-3,-2.2000000,
Note,TBS1052C - 11:44:46   14-Jan-24,,-78.720003366E-3,2.0000002,,Note,TBS1052C - 11:44:46   14-Jan-24,,-78.720003366E-3,-1.8000001,
,,,-78.640006483E-3,2.0800002,,,,,-78.640006483E-3,-1.4000000,
,,,-78.560002148E-3,2.1600001,,,,,-78.560002148E-3,-800.000011921E-3,
,,,-78.480005264E-3,2.2400002,,,,,-78.480005264E-3,-400.00000596E-3,
,,,-78.400008380E-3,2.3200002,,,,,-78.400008380E-3,0.0,
,,,-78.320004046E-3,2.4000001,,,,,-78.320004046E-3,600.000023842E-3,
,,,-78.240007162E-3,2.4800003,,,,,-78.240007162E-3,1.000000,
,,,-78.160002828E-3,2.5600002,,,,,-78.160002828E-3,1.6000000,
,,,-78.080005944E-3,2.6400001,,,,,-78.080005944E-3,2.0000000,
,,,-78.000009060E-3,2.6400001,,,,,-78.000009060E-3,2.4000001,
,,,-77.920004725E-3,2.80000019,,,,,-77.920004725E-3,3.00000000,
,,,-77.840007842E-3,2.88000011,,,,,-77.840007842E-3,3.60000014,
,,,-77.760003507E-3,2.88000011,,,,,-77.760003507E-3,4.00000000,
,,,-77.680006623E-3,2.96000028,,,,,-77.680006623E-3,4.59999990,
,,,-77.600002289E-3,3.04000020,,,,,-77.600002289E-3,5.00000000,
,,,-77.520005405E-3,3.12000012,,,,,-77.520005405E-3,5.59999990,
,,,-77.440008521E-3,3.12000012,,,,,-77.440008521E-3,6.20000029,
,,,-77.360004187E-3,3.20000029,,,,,-77.360004187E-3,6.59999990,
,,,-77.280007303E-3,3.28000021,,,,,-77.280007303E-3,7.20000029,
,,,-77.200002968E-3,3.36000013,,,,,-77.200002968E-3,7.599999905,
,,,-77.120006084E-3,3.44000030,,,,,-77.120006084E-3,8.199999809,
,,,-77.040009201E-3,3.52000022,,,,,-77.040009201E-3,8.600000381,
,,,-76.960004866E-3,3.68000031,,,,,-76.960004866E-3,8.800000191,
,,,-76.880007982E-3,3.76000023,,,,,-76.880007982E-3,9.199999809,
,,,-76.800003648E-3,3.92000031,,,,,-76.800003648E-3,9.400000572,
,,,-76.720006764E-3,4.08000040,,,,,-76.720006764E-3,9.600000381,
,,,-76.640002429E-3,4.24000025,,,,,-76.640002429E-3,9.600000381,
,,,-76.560005546E-3,4.40000010,,,,,-76.560005546E-3,9.800000191,
,,,-76.480008662E-3,4.48000050,,,,,-76.480008662E-3,9.800000191,
,,,-76.400004327E-3,4.64000034,,,,,-76.400004327E-3,10.0000000,
,,,-76.320007443E-3,4.80000019,,,,,-76.320007443E-3,10.0000000,
,,,-76.240003109E-3,4.96000051,,,,,-76.240003109E-3,10.1999998,
,,,-76.160006225E-3,5.04000044,,,,,-76.160006225E-3,10.1999998,
,,,-76.080009341E-3,5.20000029,,,,,-76.080009341E-3,10.1999998,
,,,-76.000005007E-3,5.28000021,,,,,-76.000005007E-3,10.1999998,
,,,-75.920008123E-3,5.36000061,,,,,-75.920008123E-3,10.1999998,
,,,-75.840003788E-3,5.52000046,,,,,-75.840003788E-3,10.4000006,
,,,-75.760006905E-3,5.60000038,,,,,-75.760006905E-3,10.4000006,
,,,-75.680002570E-3,5.68000031,,,,,-75.680002570E-3,10.4000006,
,,,-75.600005686E-3,5.76000023,,,,,-75.600005686E-3,10.4000006,
,,,-75.520008802E-3,5.84000063,,,,,-75.520008802E-3,10.4000006,
,,,-75.440004468E-3,5.92000055,,,,,-75.440004468E-3,10.4000006,
,,,-75.360007584E-3,6.00000048,,,,,-75.360007584E-3,10.4000006,
,,,-75.280003250E-3,6.08000040,,,,,-75.280003250E-3,10.4000006,
,,,-75.200006366E-3,6.08000040,,,,,-75.200006366E-3,10.4000006,
,,,-75.120009482E-3,6.16000032,,,,,-75.120009482E-3,10.4000006,
,,,-75.040005147E-3,6.24000025,,,,,-75.040005147E-3,10.4000006,
,,,-74.960008264E-3,6.24000025,,,,,-74.960008264E-3,10.6000004,
,,,-74.880003929E-3,6.32000065,,,,,-74.880003929E-3,10.6000004,
,,,-74.800007045E-3,6.32000065,,,,,-74.800007045E-3,10.4000006,
,,,-74.720002711E-3,6.40000057,,,,,-74.720002711E-3,10.6000004,
,,,-74.640005827E-3,6.40000057,,,,,-74.640005827E-3,10.6000004,
,,,-74.560008943E-3,6.40000057,,,,,-74.560008943E-3,10.6000004,
,,,-74.480004609E-3,6.40000057,,,,,-74.480004609E-3,10.6000004,
,,,-74.400007725E-3,6.40000057,,,,,-74.400007725E-3,10.4000006,
,,,-74.320003390E-3,6.40000057,,,,,-74.320003390E-3,10.6000004,
,,,-74.240006506E-3,6.40000057,,,,,-74.240006506E-3,10.4000006,
,,,-74.160002172E-3,6.40000057,,,,,-74.160002172E-3,10.4000006,
,,,-74.080005288E-3,6.40000057,,,,,-74.080005288E-3,10.4000006,
,,,-74.000008404E-3,6.32000065,,,,,-74.000008404E-3,10.4000006,
,,,-73.920004070E-3,6.32000065,,,,,-73.920004070E-3,10.4000006,
,,,-73.840007186E-3,6.24000025,,,,,-73.840007186E-3,10.4000006,
,,,-73.760002851E-3,6.24000025,,,,,-73.760002851E-3,10.1999998,
,,,-73.680005968E-3,6.16000032,,,,,-73.680005968E-3,10.1999998,
,,,-73.600009084E-3,6.08000040,,,,,-73.600009084E-3,10.1999998,
,,,-73.520004749E-3,6.08000040,,,,,-73.520004749E-3,10.1999998,
,,,-73.440007865E-3,6.00000048,,,,,-73.440007865E-3,10.1999998,
,,,-73.360003531E-3,6.00000048,,,,,-73.360003531E-3,10.0000000,
,,,-73.280006647E-3,5.84000063,,,,,-73.280006647E-3,10.0000000,
,,,-73.200002313E-3,5.76000023,,,,,-73.200002313E-3,10.0000000,
,,,-73.120005429E-3,5.76000023,,,,,-73.120005429E-3,10.0000000,
,,,-73.040008545E-3,5.60000038,,,,,-73.040008545E-3,10.0000000,
,,,-72.960004210E-3,5.60000038,,,,,-72.960004210E-3,9.800000191,
,,,-72.880007327E-3,5.44000053,,,,,-72.880007327E-3,9.800000191,
,,,-72.800002992E-3,5.36000061,,,,,-72.800002992E-3,9.800000191,
,,,-72.720006108E-3,5.28000021,,,,,-72.720006108E-3,9.800000191,
,,,-72.640009224E-3,5.12000036,,,,,-72.640009224E-3,9.600000381,
,,,-72.560004890E-3,5.04000044,,,,,-72.560004890E-3,9.600000381,
,,,-72.480008006E-3,4.88000011,,,,,-72.480008006E-3,9.600000381,
,,,-72.400003672E-3,4.80000019,,,,,-72.400003672E-3,9.400000572,
,,,-72.320006788E-3,4.64000034,,,,,-72.320006788E-3,9.400000572,
,,,-72.240002453E-3,4.56000042,,,,,-72.240002453E-3,9.400000572,
,,,-72.160005569E-3,4.40000010,,,,,-72.160005569E-3,9.400000572,
,,,-72.080008686E-3,4.24000025,,,,,-72.080008686E-3,9.199999809,
,,,-72.000004351E-3,4.16000032,,,,,-72.000004351E-3,9.199999809,
,,,-71.920007467E-3,4.00000048,,,,,-71.920007467E-3,9.000000000,
,,,-71.840003133E-3,3.84000015,,,,,-71.840003133E-3,9.000000000,
,,,-71.760006249E-3,3.76000023,,,,,-71.760006249E-3,9.000000000,
,,,-71.680009365E-3,3.60000014,,,,,-71.680009365E-3,8.800000191,
,,,-71.600005031E-3,3.36000013,,,,,-71.600005031E-3,8.600000381,
,,,-71.520008147E-3,3.28000021,,,,,-71.520008147E-3,8.600000381,
,,,-71.440003812E-3,3.12000012,,,,,-71.440003812E-3,8.600000381,
,,,-71.360006928E-3,2.88000011,,,,,-71.360006928E-3,8.600000381,
,,,-71.280002594E-3,2.72000027,,,,,-71.280002594E-3,8.400000572,
,,,-71.200005710E-3,2.5600002,,,,,-71.200005710E-3,8.199999809,
,,,-71.120008826E-3,2.4000001,,,,,-71.120008826E-3,8.199999809,
,,,-71.040004492E-3,2.2400002,,,,,-71.040004492E-3,8.199999809,
,,,-70.960007608E-3,2.0800002,,,,,-70.960007608E-3,8.000000000,
,,,-70.880003273E-3,1.9200001,,,,,-70.880003273E-3,8.000000000,
,,,-70.800006390E-3,1.7600001,,,,,-70.800006390E-3,7.800000191,
,,,-70.720009506E-3,1.6000001,,,,,-70.720009506E-3,7.800000191,
,,,-70.640005171E-3,1.4400001,,,,,-70.640005171E-3,7.599999905,
,,,-70.560008287E-3,1.2000000,,,,,-70.560008287E-3,7.400000095,
,,,-70.480003953E-3,1.0400001,,,,,-70.480003953E-3,7.400000095,
,,,-70.400007069E-3,880.000054836E-3,,,,,-70.400007069E-3,7.20000029,
,,,-70.320002735E-3,720.000028610E-3,,,,,-70.320002735E-3,7.20000029,
,,,-70.240005851E-3,560.000061989E-3,,,,,-70.240005851E-3,7.00000000,
,,,-70.160008967E-3,320.00002265E-3,,,,,-70.160008967E-3,6.80000019,
,,,-70.080004632E-3,240.00000954E-3,,,,,-70.080004632E-3,6.59999990,
,,,-70.000007749E-3,80.000005662E-3,,,,,-70.000007749E-3,6.59999990,
,,,-69.920003414E-3,-80.000005662E-3,,,,,-69.920003414E-3,6.40000010,
,,,-69.840006530E-3,-240.00000954E-3,,,,,-69.840006530E-3,6.20000029,
,,,-69.760009646E-3,-400.00003576E-3,,,,,-69.760009646E-3,6.00000000,
,,,-69.680005312E-3,-560.000061989E-3,,,,,-69.680005312E-3,5.80000019,
,,,-69.600008428E-3,-640.000045300E-3,,,,,-69.600008428E-3,5.59999990,
,,,-69.520004094E-3,-800.000071526E-3,,,,,-69.520004094E-3,5.40000010,
,,,-69.440007210E-3,-960.000038147E-3,,,,,-69.440007210E-3,5.00000000,
,,,-69.360002875E-3,-1.1200001,,,,,-69.360002875E-3,4.80000019,
,,,-69.280005991E-3,-1.2000000,,,,,-69.280005991E-3,4.40000010,
,,,-69.200009108E-3,-1.2800001,,,,,-69.200009108E-3,4.00000000,
,,,-69.120004773E-3,-1.4400001,,,,,-69.120004773E-3,3.79999995,
,,,-69.040007889E-3,-1.5200001,,,,,-69.040007889E-3,3.40000010,
,,,-68.960003555E-3,-1.6000001,,,,,-68.960003555E-3,3.00000000,
,,,-68.880006671E-3,-1.6800001,,,,,-68.880006671E-3,2.6000001,
,,,-68.800002337E-3,-1.8400002,,,,,-68.800002337E-3,2.2000000,
,,,-68.720005453E-3,-1.9200001,,,,,-68.720005453E-3,1.8000001,
,,,-68.640008569E-3,-1.9200001,,,,,-68.640008569E-3,1.4000000,
,,,-68.560004234E-3,-2.0800002,,,,,-68.560004234E-3,800.000011921E-3,
,,,-68.480007350E-3,-2.1600001,,,,,-68.480007350E-3,400.00000596E-3,
,,,-68.400003016E-3,-2.2400002,,,,,-68.400003016E-3,0.0,
,,,-68.320006132E-3,-2.2400002,,,,,-68.320006132E-3,-600.000023842E-3,
,,,-68.240009248E-3,-2.4000001,,,,,-68.240009248E-3,-1.000000,
,,,-68.160004914E-3,-2.4800003,,,,,-68.160004914E-3,-1.4000000,
,,,-68.080008030E-3,-2.5600002,,,,,-68.080008030E-3,-2.0000000,
,,,-68.000003695E-3,-2.5600002,,,,,-68.000003695E-3,-2.4000001,
,,,-67.920006812E-3,-2.6400001,,,,,-67.920006812E-3,-3.00000000,
,,,-67.840002477E-3,-2.72000027,,,,,-67.840002477E-3,-3.40000010,
,,,-67.760005593E-3,-2.80000019,,,,,-67.760005593E-3,-3.79999995,
,,,-67.680008709E-3,-2.88000011,,,,,-67.680008709E-3,-4.40000010,
,,,-67.600004375E-3,-2.88000011,,,,,-67.600004375E-3,-5.00000000,
,,,-67.520007491E-3,-2.96000028,,,,,-67.520007491E-3,-5.40000010,
,,,-67.440003157E-3,-3.04000020,,,,,-67.440003157E-3,-6.00000000,
,,,-67.360006273E-3,-3.12000012,,,,,-67.360006273E-3,-6.59999990,
,,,-67.280009389E-3,-3.12000012,,,,,-67.280009389E-3,-7.00000000,
,,,-67.200005054E-3,-3.20000029,,,,,-67.200005054E-3,-7.599999905,
,,,-67.120008171E-3,-3.28000021,,,,,-67.120008171E-3,-8.000000000,
,,,-67.040003836E-3,-3.44000030,,,,,-67.040003836E-3,-8.600000381,
,,,-66.960006952E-3,-3.52000022,,,,,-66.960006952E-3,-8.800000191,
,,,-66.880002618E-3,-3.68000031,,,,,-66.880002618E-3,-9.199999809,
,,,-66.800005734E-3,-3.76000023,,,,,-66.800005734E-3,-9.400000572,
,,,-66.720008850E-3,-3.92000031,,,,,-66.720008850E-3,-9.400000572,
,,,-66.640004516E-3,-4.08000040,,,,,-66.640004516E-3,-9.600000381,
,,,-66.560007632E-3,-4.24000025,,,,,-66.560007632E-3,-9.800000191,
,,,-66.480003297E-3,-4.40000010,,,,,-66.480003297E-3,-9.800000191,
,,,-66.400006413E-3,-4.56000042,,,,,-66.400006413E-3,-10.0000000,
,,,-66.320009530E-3,-4.64000034,,,,,-66.320009530E-3,-10.0000000,
,,,-66.240005195E-3,-4.80000019,,,,,-66.240005195E-3,-10.0000000,
,,,-66.160008311E-3,-4.96000051,,,,,-66.160008311E-3,-10.1999998,
,,,-66.080003977E-3,-5.12000036,,,,,-66.080003977E-3,-10.0000000,
,,,-66.000007093E-3,-5.20000029,,,,,-66.000007093E-3,-10.1999998,
,,,-65.920002759E-3,-5.28000021,,,,,-65.920002759E-3,-10.1999998,
,,,-65.840005875E-3,-5.44000053,,,,,-65.840005875E-3,-10.1999998,
,,,-65.760008991E-3,-5.52000046,,,,,-65.760008991E-3,-10.1999998,
,,,-65.680004656E-3,-5.60000038,,,,,-65.680004656E-3,-10.4000006,
,,,-65.600007772E-3,-5.68000031,,,,,-65.600007772E-3,-10.4000006,
,,,-65.520003438E-3,-5.76000023,,,,,-65.520003438E-3,-10.4000006,
,,,-65.440006554E-3,-5.84000063,,,,,-65.440006554E-3,-10.4000006,
,,,-65.360009670E-3,-5.92000055,,,,,-65.360009670E-3,-10.4000006,
,,,-65.280005336E-3,-6.00000048,,,,,-65.280005336E-3,-10.4000006,
,,,-65.200008452E-3,-6.00000048,,,,,-65.200008452E-3,-10.4000006,
,,,-65.120004117E-3,-6.08000040,,,,,-65.120004117E-3,-10.4000006,
,,,-65.040007234E-3,-6.16000032,,,,,-65.040007234E-3,-10.4000006,
,,,-64.960002899E-3,-6.16000032,,,,,-64.960002899E-3,-10.6000004,
,,,-64.880006015E-3,-6.24000025,,,,,-64.880006015E-3,-10.4000006,
,,,-64.800009131E-3,-6.24000025,,,,,-64.800009131E-3,-10.4000006,
,,,-64.720004797E-3,-6.24000025,,,,,-64.720004797E-3,-10.4000006,
,,,-64.640007913E-3,-6.32000065,,,,,-64.640007913E-3,-10.4000006,
,,,-64.560003579E-3,-6.32000065,,,,,-64.560003579E-3,-10.4000006,
,,,-64.480006695E-3,-6.32000065,,,,,-64.480006695E-3,-10.4000006,
,,,-64.400002360E-3,-6.32000065,,,,,-64.400002360E-3,-10.4000006,
,,,-64.320005476E-3,-6.32000065,,,,,-64.320005476E-3,-10.4000006,
,,,-64.240008593E-3,-6.32000065,,,,,-64.240008593E-3,-10.4000006,
,,,-64.160004258E-3,-6.32000065,,,,,-64.160004258E-3,-10.4000006,
,,,-64.080007374E-3,-6.32000065,,,,,-64.080007374E-3,-10.4000006,
,,,-64.000003040E-3,-6.24000025,,,,,-64.000003040E-3,-10.4000006,
,,,-63.920006156E-3,-6.24000025,,,,,-63.920006156E-3,-10.1999998,
,,,-63.840009272E-3,-6.16000032,,,,,-63.840009272E-3,-10.1999998,
,,,-63.760004938E-3,-6.16000032,,,,,-63.760004938E-3,-10.1999998,
,,,-63.680008054E-3,-6.08000040,,,,,-63.680008054E-3,-10.1999998,
,,,-63.600003719E-3,-6.08000040,,,,,-63.600003719E-3,-10.1999998,
,,,-63.520006835E-3,-6.00000048,,,,,-63.520006835E-3,-10.1999998,
,,,-63.440002501E-3,-5.84000063,,,,,-63.440002501E-3,-10.0000000,
,,,-63.360005617E-3,-5.84000063,,,,,-63.360005617E-3,-10.0000000,
,,,-63.280008733E-3,-5.76000023,,,,,-63.280008733E-3,-10.0000000,
,,,-63.200004399E-3,-5.68000031,,,,,-63.200004399E-3,-10.0000000,
,,,-63.120007515E-3,-5.60000038,,,,,-63.120007515E-3,-9.800000191,
,,,-63.040003181E-3,-5.52000046,,,,,-63.040003181E-3,-9.800000191,
,,,-62.960006297E-3,-5.44000053,,,,,-62.960006297E-3,-9.800000191,
,,,-62.880009413E-3,-5.36000061,,,,,-62.880009413E-3,-9.800000191,
,,,-62.800005078E-3,-5.28000021,,,,,-62.800005078E-3,-9.800000191,
,,,-62.720008194E-3,-5.12000036,,,,,-62.720008194E-3,-9.600000381,
,,,-62.640003860E-3,-5.04000044,,,,,-62.640003860E-3,-9.600000381,
,,,-62.560006976E-3,-4.96000051,,,,,-62.560006976E-3,-9.400000572,
,,,-62.480006367E-3,-4.80000019,,,,,-62.480006367E-3,-9.400000572,
,,,-62.400005758E-3,-4.72000027,,,,,-62.400005758E-3,-9.400000572,
,,,-62.320005149E-3,-4.56000042,,,,,-62.320005149E-3,-9.400000572,
,,,-62.240004539E-3,-4.40000010,,,,,-62.240004539E-3,-9.199999809,
,,,-62.160007656E-3,-4.32000017,,,,,-62.160007656E-3,-9.199999809,
,,,-62.080007046E-3,-4.16000032,,,,,-62.080007046E-3,-9.199999809,
,,,-62.000006437E-3,-4.00000048,,,,,-62.000006437E-3,-9.199999809,
,,,-61.920005828E-3,-3.84000015,,,,,-61.920005828E-3,-9.000000000,
,,,-61.840005219E-3,-3.76000023,,,,,-61.840005219E-3,-9.000000000,
,,,-61.760004610E-3,-3.60000014,,,,,-61.760004610E-3,-8.800000191,
,,,-61.680007726E-3,-3.44000030,,,,,-61.680007726E-3,-8.600000381,
,,,-61.600007117E-3,-3.28000021,,,,,-61.600007117E-3,-8.600000381,
,,,-61.520006508E-3,-3.12000012,,,,,-61.520006508E-3,-8.600000381,
,,,-61.440005898E-3,-2.96000028,,,,,-61.440005898E-3,-8.400000572,
,,,-61.360005289E-3,-2.80000019,,,,,-61.360005289E-3,-8.400000572,
,,,-61.280004680E-3,-2.6400001,,,,,-61.280004680E-3,-8.199999809,
,,,-61.200007796E-3,-2.4000001,,,,,-61.200007796E-3,-8.199999809,
,,,-61.120007187E-3,-2.2400002,,,,,-61.120007187E-3,-8.199999809,
,,,-61.040006578E-3,-2.0800002,,,,,-61.040006578E-3,-8.000000000,
,,,-60.960005969E-3,-1.9200001,,,,,-60.960005969E-3,-7.800000191,
,,,-60.880005360E-3,-1.7600001,,,,,-60.880005360E-3,-7.800000191,
,,,-60.800004750E-3,-1.6000001,,,,,-60.800004750E-3,-7.599999905,
,,,-60.720007867E-3,-1.4400001,,,,,-60.720007867E-3,-7.599999905,
,,,-60.640007257E-3,-1.2800001,,,,,-60.640007257E-3,-7.400000095,
,,,-60.560006648E-3,-1.1200001,,,,,-60.560006648E-3,-7.400000095,
,,,-60.480006039E-3,-960.000038147E-3,,,,,-60.480006039E-3,-7.20000029,
,,,-60.400005430E-3,-720.000028610E-3,,,,,-60.400005430E-3,-7.20000029,
,,,-60.320004821E-3,-560.000061989E-3,,,,,-60.320004821E-3,-7.00000000,
,,,-60.240007937E-3,-400.00003576E-3,,,,,-60.240007937E-3,-7.00000000,
,,,-60.160007328E-3,-240.00000954E-3,,,,,-60.160007328E-3,-6.80000019,
,,,-60.080006719E-3,-80.000005662E-3,,,,,-60.080006719E-3,-6.59999990,
,,,-60.000006109E-3,80.000005662E-3,,,,,-60.000006109E-3,-6.40000010,
,,,-59.920005500E-3,240.00000954E-3,,,,,-59.920005500E-3,-6.20000029,
,,,-59.840004891E-3,400.00003576E-3,,,,,-59.840004891E-3,-6.00000000,
,,,-59.760008007E-3,560.000061989E-3,,,,,-59.760008007E-3,-5.80000019,
,,,-59.680007398E-3,640.000045300E-3,,,,,-59.680007398E-3,-5.59999990,
,,,-59.600006789E-3,800.000071526E-3,,,,,-59.600006789E-3,-5.40000010,
,,,-59.520006180E-3,880.000054836E-3,,,,,-59.520006180E-3,-5.20000029,
,,,-59.440005571E-3,1.0400001,,,,,-59.440005571E-3,-4.80000019,
,,,-59.360004961E-3,1.2000000,,,,,-59.360004961E-3,-4.59999990,
,,,-59.280004352E-3,1.3600001,,,,,-59.280004352E-3,-4.20000029,
,,,-59.200007468E-3,1.4400001,,,,,-59.200007468E-3,-4.00000000,
,,,-59.120006859E-3,1.6000001,,,,,-59.120006859E-3,-3.60000014,
,,,-59.040006250E-3,1.6800001,,,,,-59.040006250E-3,-3.20000005,
,,,-58.960005641E-3,1.7600001,,,,,-58.960005641E-3,-3.00000000,
,,,-58.880005032E-3,1.8400002,,,,,-58.880005032E-3,-2.4000001,
,,,-58.800004423E-3,1.9200001,,,,,-58.800004423E-3,-2.0000000,
,,,-58.720007539E-3,2.0000002,,,,,-58.720007539E-3,-1.6000000,
,,,-58.640006930E-3,2.0800002,,,,,-58.640006930E-3,-1.2000000,
,,,-58.560006320E-3,2.2400002,,,,,-58.560006320E-3,-800.000011921E-3,
,,,-58.480005711E-3,2.2400002,,,,,-58.480005711E-3,-400.00000596E-3,
,,,-58.400005102E-3,2.3200002,,,,,-58.400005102E-3,200.00000298E-3,
,,,-58.320004493E-3,2.4800003,,,,,-58.320004493E-3,600.000023842E-3,
,,,-58.240007609E-3,2.4800003,,,,,-58.240007609E-3,1.000000,
,,,-58.160007000E-3,2.5600002,,,,,-58.160007000E-3,1.6000000,
,,,-58.080006391E-3,2.6400001,,,,,-58.080006391E-3,2.0000000,
,,,-58.000005782E-3,2.72000027,,,,,-58.000005782E-3,2.6000001,
,,,-57.920005172E-3,2.80000019,,,,,-57.920005172E-3,3.20000005,
,,,-57.840004563E-3,2.88000011,,,,,-57.840004563E-3,3.60000014,
,,,-57.760007679E-3,2.88000011,,,,,-57.760007679E-3,4.20000029,
,,,-57.680007070E-3,2.96000028,,,,,-57.680007070E-3,4.59999990,
,,,-57.600006461E-3,3.04000020,,,,,-57.600006461E-3,5.20000029,
,,,-57.520005852E-3,3.12000012,,,,,-57.520005852E-3,5.59999990,
,,,-57.440005243E-3,3.12000012,,,,,-57.440005243E-3,6.20000029,
,,,-57.360004634E-3,3.20000029,,,,,-57.360004634E-3,6.80000019,
,,,-57.280007750E-3,3.28000021,,,,,-57.280007750E-3,7.20000029,
,,,-57.200007141E-3,3.36000013,,,,,-57.200007141E-3,7.800000191,
,,,-57.120006531E-3,3.44000030,,,,,-57.120006531E-3,8.199999809,
,,,-57.040005922E-3,3.52000022,,,,,-57.040005922E-3,8.600000381,
,,,-56.960005313E-3,3.68000031,,,,,-56.960005313E-3,8.800000191,
,,,-56.880004704E-3,3.84000015,,,,,-56.880004704E-3,9.199999809,
,,,-56.800007820E-3,3.92000031,,,,,-56.800007820E-3,9.400000572,
,,,-56.720007211E-3,4.08000040,,,,,-56.720007211E-3,9.600000381,
,,,-56.640006602E-3,4.24000025,,,,,-56.640006602E-3,9.600000381,
,,,-56.560005993E-3,4.40000010,,,,,-56.560005993E-3,9.800000191,
,,,-56.480005383E-3,4.48000050,,,,,-56.480005383E-3,10.0000000,
,,,-56.400004774E-3,4.64000034,,,,,-56.400004774E-3,10.0000000,
,,,-56.320007890E-3,4.80000019,,,,,-56.320007890E-3,10.1999998,
